1709607088.727046,1.1
1709607088.727128,1.2
1709607088.727140,2.1
1709607088.727150,1.3
1709607088.727160,3.1
1709607088.727171,1.4
1709607089.626032,3.2
1709607089.626105,1.5
1709607090.141041,1.6
1709607090.718056,1.7
1709607092.844158,1.8
1709607093.379041,2.2
1709607093.489043,2.3
1709607093.657447,3.3
1709607094.084051,2.4
1709607096.571084,2.5
1709607096.571180,2.6
1709607096.655071,1.9
1709607096.739258,3.4
1709607098.073081,1.10
1709607098.723352,1.11
1709607099.980057,1.12
1709607100.553438,3.5
1709607100.637609,1.13
1709607101.229816,2.7
1709607101.929172,3.6
1709607102.167025,1.14
1709607102.738141,1.15
1709607103.050043,2.8
1709607103.525123,3.7
1709607104.205056,2.9
1709607104.332033,1.16
1709607104.969134,3.8
1709607105.135180,2.10
1709607106.566062,2.11
1709607107.768049,2.12
1709607109.340068,1.17
1709607109.466091,1.18
1709607109.695034,3.9
1709607112.671050,2.13
1709607113.926077,3.10
1709607115.364078,2.14
1709607115.364172,2.15
1709607116.039027,2.16
1709607117.383743,1.19
1709607117.598040,3.11
1709607117.598148,2.17
1709607118.120046,2.18
1709607119.263028,2.19
1709607120.601046,2.20
1709607121.274761,1.20
1709607122.158075,3.12
1709607122.476051,2.21
1709607123.462063,1.21
1709607123.803029,3.13
1709607124.267049,2.22
1709607124.644049,3.14
1709607126.973130,1.22
1709607129.144366,2.23
1709607129.640111,2.24
1709607129.850123,1.23
1709607130.209088,2.25
1709607131.280160,3.15
1709607134.108046,2.26
1709607134.319034,3.16
1709607134.426033,2.27
1709607134.928089,2.28
1709607135.269037,2.29
1709607136.231733,2.30
1709607136.812051,3.17
1709607136.976073,2.31
1709607138.387059,2.32
1709607139.507063,2.33
1709607141.175035,2.34
1709607145.347153,2.35
1709607146.060052,2.36
1709607146.169567,2.37
1709607147.673037,2.38
1709607148.746040,3.18
1709607148.936035,2.39
1709607149.315255,1.24
1709607149.928358,1.25
1709607150.119167,3.19
1709607151.404080,2.40
1709607151.858033,1.26
1709607152.105040,2.41
1709607152.231041,1.27
1709607152.757069,2.42
1709607153.187038,1.28
1709607153.187160,1.29
1709607155.122126,2.43
1709607155.619384,1.30
1709607155.619506,1.31
1709607155.752150,1.32
1709607155.879066,1.33
1709607156.346737,1.34
1709607156.598042,3.20
1709607156.598152,1.35
1709607157.746131,3.21
1709607157.980044,1.36
1709607158.867132,2.44
1709607159.753067,2.45
1709607161.699088,2.46
1709607162.229064,3.22
1709607162.592114,1.37
1709607162.592222,3.23
1709607162.836033,3.24
1709607163.633043,2.47
1709607165.558044,2.48
1709607168.278026,3.25
1709607168.278126,2.49
1709607168.391246,3.26
1709607170.566038,3.27
1709607171.514072,3.28
1709607171.887072,2.50
1709607172.492034,1.38
1709607172.756106,2.51
1709607174.897044,1.39
1709607175.363102,2.52
1709607176.152049,2.53
1709607178.329022,3.29
1709607179.106033,3.30
1709607179.974034,3.31
1709607179.974137,2.54
1709607180.238032,3.32
1709607181.220572,2.55
1709607181.923048,3.33
1709607182.643064,2.56
1709607183.451033,2.57
1709607183.745025,3.34
1709607184.901047,3.35
1709607185.260030,3.36
1709607186.127049,3.37
1709607186.236818,2.58
1709607187.537082,2.59
1709607188.350085,2.60
1709607188.350204,2.61
