1709611962.223356,3.1
1709611962.223583,3.2
1709611962.223598,3.3
1709611962.223614,3.4
1709611962.223629,3.5
1709611962.223644,3.6
1709611962.223661,3.7
1709611962.223682,3.8
1709611962.223701,3.9
1709611962.223721,3.10
1709611962.223743,3.11
1709611962.223767,3.12
1709611962.223789,3.13
1709611962.223812,3.14
1709611962.223840,3.15
1709611962.223867,3.16
1709611962.223895,3.17
1709611962.223932,3.18
1709611962.223963,3.19
1709611962.223997,4.1
1709611962.224035,5.1
1709611962.224062,5.2
1709611962.224092,5.3
1709611962.224122,5.4
1709611962.224155,5.5
1709611962.224189,5.6
1709611962.224221,5.7
1709611962.224254,5.8
1709611962.224289,5.9
1709611962.224321,5.10
1709611962.224363,5.11
1709611962.224400,5.12
1709611962.224433,5.13
1709611962.224468,5.14
1709611962.224502,5.15
1709611962.224538,5.16
1709611962.224573,5.17
1709611962.224609,5.18
1709611962.224647,5.19
1709611962.224688,5.20
1709611962.224727,5.21
1709611962.224767,5.22
1709611962.224807,5.23
1709611962.224866,5.24
1709611962.224907,5.25
1709611962.224947,5.26
1709611962.224987,5.27
1709611962.225030,5.28
1709611962.225070,5.29
1709611962.225109,5.30
1709611962.225150,5.31
1709611962.225189,5.32
1709611962.225230,5.33
1709611962.225270,5.34
1709611962.225312,5.35
1709611962.225359,5.36
1709611962.225404,5.37
1709611962.225448,5.38
1709611962.225492,5.39
1709611962.225533,5.40
1709611962.225573,5.41
1709611962.225615,4.2
1709611962.225656,4.3
1709611962.225700,5.42
1709611962.225742,7.1
1709611962.225785,5.43
1709611962.225826,5.44
1709611962.225867,5.45
1709611962.225911,5.46
1709611962.225956,5.47
1709611962.225997,5.48
1709611962.226052,5.49
1709611962.226097,5.50
1709611962.226137,5.51
1709611962.226177,5.52
1709611962.226218,5.53
1709611962.226259,5.54
1709611962.226299,5.55
1709611962.226346,5.56
1709611962.226388,5.57
1709611962.226435,5.58
1709611962.226475,5.59
1709611962.226514,5.60
1709611962.226556,2.1
1709611962.226598,5.61
1709611962.226640,5.62
1709611962.226681,5.63
1709611962.226725,5.64
1709611962.226767,5.65
1709611962.226809,5.66
1709611962.226849,5.67
1709611962.226894,5.68
1709611962.226935,5.69
1709611962.226977,5.70
1709611962.227021,5.71
1709611962.227063,5.72
1709611962.227103,5.73
1709611962.227146,5.74
1709611962.227190,5.75
1709611962.227231,5.76
1709611962.227273,5.77
1709611962.227318,5.78
1709611962.227365,5.79
1709611962.227410,5.80
1709611962.227453,5.81
1709611962.227502,5.82
1709611962.227543,5.83
1709611962.227585,5.84
1709611962.227630,5.85
1709611962.227673,5.86
1709611962.227715,5.87
1709611962.227761,3.20
1709611962.227805,3.21
1709611962.227849,3.22
1709611962.227892,3.23
1709611962.227936,3.24
1709611962.227983,3.25
1709611962.228027,3.26
1709611962.228073,3.27
1709611962.228119,3.28
1709611962.228162,3.29
1709611962.228206,3.30
1709611962.228252,3.31
1709611962.228297,3.32
1709611962.228348,3.33
1709611962.228401,4.4
1709611962.228451,3.34
1709611962.228505,4.5
1709611962.228563,3.35
1709611962.228614,4.6
1709611962.228663,3.36
1709611962.228714,4.7
1709611962.228769,3.37
1709611962.228817,4.8
1709611962.228868,3.38
1709611962.228920,4.9
1709611962.228969,3.39
1709611962.229019,4.10
1709611962.229069,3.40
1709611962.229117,4.11
1709611962.229168,3.41
1709611962.229224,4.12
1709611962.229271,3.42
1709611962.229318,4.13
1709611962.229377,3.43
1709611962.229424,4.14
1709611962.229471,3.44
1709611962.271459,4.15
1709611962.271537,3.45
1709611962.271588,4.16
1709611962.271636,3.46
1709611962.271686,4.17
1709611962.271738,3.47
1709611962.271786,4.18
1709611962.271833,3.48
1709611962.271883,4.19
1709611962.271930,3.49
1709611962.271976,4.20
1709611962.272027,3.50
1709611962.272104,4.21
1709611962.272152,3.51
1709611962.272221,4.22
1709611962.272270,3.52
1709611962.272343,4.23
1709611962.272394,3.53
1709611962.272440,4.24
1709611962.272492,3.54
1709611962.272541,4.25
1709611962.272589,3.55
1709611962.272642,4.26
1709611962.272690,3.56
1709611962.272740,4.27
1709611962.272790,3.57
1709611962.272841,4.28
1709611962.272890,3.58
1709611962.272936,4.29
1709611962.272987,3.59
1709611962.273033,4.30
1709611962.273081,3.60
1709611962.273130,4.31
1709611962.273192,3.61
1709611962.273239,4.32
1709611962.273291,3.62
1709611962.273345,4.33
1709611962.273394,3.63
1709611962.273445,4.34
1709611962.273492,3.64
1709611962.273539,4.35
1709611962.273586,3.65
1709611962.273636,4.36
1709611962.273686,3.66
1709611962.273733,4.37
1709611962.273784,3.67
1709611962.273831,4.38
1709611962.273877,3.68
1709611962.273926,4.39
1709611962.273981,3.69
1709611962.274028,4.40
1709611962.274074,3.70
1709611962.274124,4.41
1709611962.274172,3.71
1709611962.274219,4.42
1709611962.274269,3.72
1709611962.274317,4.43
1709611962.274369,3.73
1709611962.274421,4.44
1709611962.274468,3.74
1709611962.274515,4.45
1709611962.274559,3.75
1709611962.274618,4.46
1709611962.274664,3.76
1709611962.274711,4.47
1709611962.274761,3.77
1709611962.274807,4.48
1709611962.274851,3.78
1709611962.274900,4.49
1709611962.274946,3.79
1709611962.274991,4.50
1709611962.275038,3.80
1709611962.275085,4.51
1709611962.275131,7.2
1709611962.275177,3.81
1709611962.275227,4.52
1709611962.275275,7.3
1709611962.275321,3.82
1709611962.275376,4.53
1709611962.275426,7.4
1709611962.275472,3.83
1709611962.275527,4.54
1709611962.275574,7.5
1709611962.275621,3.84
1709611962.275667,4.55
1709611962.275718,7.6
1709611962.275764,3.85
1709611962.275811,4.56
1709611962.275862,7.7
1709611962.275909,3.86
1709611962.275955,4.57
1709611962.276006,7.8
1709611962.276052,3.87
1709611962.276099,4.58
1709611962.276147,7.9
1709611962.276196,3.88
1709611962.276243,4.59
1709611962.276290,7.10
1709611962.276345,3.89
1709611962.276392,4.60
1709611962.276440,7.11
1709611962.276489,3.90
1709611962.276537,4.61
1709611962.276583,7.12
1709611962.276629,3.91
1709611962.276678,4.62
1709611962.276726,7.13
1709611962.276772,3.92
1709611962.276823,4.63
1709611962.276868,7.14
1709611962.276917,3.93
1709611962.297458,4.64
1709611962.297534,6.1
1709611962.297583,3.94
1709611962.297636,4.65
1709611962.297690,6.2
1709611962.297739,3.95
1709611962.297791,4.66
1709611962.297841,3.96
1709611962.297892,4.67
1709611962.297947,3.97
1709611962.297997,4.68
1709611962.298046,3.98
1709611962.298101,4.69
1709611962.298150,3.99
1709611962.298203,4.70
1709611962.298256,3.100
1709611962.298306,4.71
1709611962.298362,3.101
1709611962.298418,4.72
1709611962.298468,3.102
1709611962.298517,4.73
1709611962.298570,3.103
1709611962.298618,4.74
1709611962.298668,3.104
1709611962.298721,4.75
1709611962.298770,3.105
1709611962.298819,4.76
1709611962.298873,3.106
1709611962.298921,4.77
1709611962.298970,3.107
1709611962.299022,4.78
1709611962.299071,3.108
1709611962.299120,4.79
1709611962.299172,3.109
1709611962.299223,4.80
1709611962.299272,3.110
1709611962.299332,4.81
1709611962.299384,3.111
1709611962.299433,4.82
1709611962.299484,3.112
1709611962.299534,4.83
1709611962.299583,3.113
1709611962.299632,4.84
1709611962.299685,3.114
1709611962.299734,4.85
1709611962.299793,3.115
1709611962.300150,4.86
1709611962.300212,3.116
1709611962.300261,4.87
1709611962.300313,3.117
1709611962.300373,4.88
1709611962.300434,8.1
1709611962.300482,3.118
1709611962.300530,4.89
1709611962.300583,8.2
1709611962.300632,3.119
1709611962.300681,4.90
1709611962.300733,1.1
1709611962.300781,3.120
1709611962.300831,4.91
1709611962.300879,1.2
1709611962.300933,3.121
1709611962.300983,4.92
1709611962.301031,1.3
1709611962.301087,3.122
1709611962.301137,4.93
1709611962.301185,1.4
1709611962.301238,3.123
1709611962.301286,4.94
1709611962.301341,1.5
1709611962.301393,3.124
1709611962.301442,4.95
1709611962.301490,1.6
1709611962.301544,3.125
1709611962.301592,4.96
1709611962.301641,1.7
1709611962.301693,3.126
1709611962.301742,4.97
1709611962.301790,1.8
1709611962.301841,3.127
1709611962.301890,4.98
1709611962.301939,1.9
1709611962.301991,3.128
1709611962.302039,4.99
1709611962.302089,1.10
1709611962.302137,3.129
1709611962.302189,4.100
1709611962.302238,1.11
1709611962.302284,3.130
1709611962.302341,4.101
1709611962.302392,1.12
1709611962.302441,3.131
1709611962.302495,4.102
1709611962.302544,1.13
1709611962.302592,3.132
1709611962.302646,4.103
1709611962.302695,1.14
1709611962.302743,3.133
1709611962.302796,4.104
1709611962.302871,1.15
1709611962.302919,3.134
1709611962.302971,4.105
1709611962.303020,1.16
1709611962.330487,3.135
1709611962.330591,4.106
1709611962.330652,1.17
1709611962.330717,3.136
1709611962.330771,4.107
1709611962.330821,1.18
1709611962.330874,3.137
1709611962.330925,4.108
1709611962.330974,1.19
1709611962.331024,3.138
1709611962.331077,4.109
1709611962.331125,1.20
1709611962.331174,3.139
1709611962.331226,4.110
1709611962.331276,1.21
1709611962.331341,3.140
1709611962.331394,4.111
1709611962.331444,1.22
1709611962.331493,3.141
1709611962.331552,4.112
1709611962.331602,1.23
1709611962.331652,3.142
1709611962.331706,4.113
1709611962.331756,3.143
1709611962.331806,4.114
1709611962.331858,1.24
1709611962.331908,3.144
1709611962.331957,4.115
1709611962.332011,1.25
1709611962.332061,3.145
1709611962.332109,4.116
1709611962.332163,1.26
1709611962.332213,3.146
1709611962.332261,4.117
1709611962.332315,1.27
1709611962.332372,4.118
1709611962.332421,1.28
1709611962.332474,4.119
1709611962.332536,4.120
1709611962.332585,1.29
1709611962.332638,4.121
1709611962.332686,1.30
1709611962.332735,4.122
1709611962.332787,1.31
1709611962.332836,4.123
1709611962.332884,1.32
1709611962.332943,4.124
1709611962.332999,1.33
1709611962.333050,4.125
1709611962.333106,1.34
1709611962.333154,4.126
1709611962.333204,1.35
1709611962.333258,4.127
1709611962.333308,1.36
1709611962.333363,4.128
1709611962.333418,1.37
1709611962.333467,4.129
1709611962.333517,1.38
1709611962.333571,4.130
1709611962.333619,1.39
1709611962.333668,4.131
1709611962.333721,1.40
1709611962.333770,4.132
1709611962.333823,1.41
1709611962.333872,4.133
1709611962.333920,1.42
1709611962.333974,4.134
1709611962.334022,1.43
1709611962.334071,4.135
1709611962.334122,1.44
1709611962.334173,4.136
1709611962.334224,1.45
1709611962.334272,2.2
1709611962.334324,4.137
1709611962.334381,1.46
1709611962.334431,6.3
1709611962.334484,1.47
1709611962.334532,6.4
1709611962.334580,1.48
1709611962.334631,6.5
1709611962.334680,1.49
1709611962.334728,6.6
1709611962.334780,1.50
1709611962.334830,6.7
1709611962.334878,1.51
1709611962.334929,6.8
1709611962.334978,1.52
1709611962.335026,6.9
1709611962.335078,1.53
1709611962.335127,6.10
1709611962.335176,1.54
1709611962.335229,6.11
1709611962.335278,1.55
1709611962.335333,6.12
1709611962.335387,1.56
1709611962.335438,6.13
1709611962.335485,1.57
1709611962.335534,6.14
1709611962.335584,1.58
1709611962.335632,6.15
1709611962.335681,1.59
1709611962.335728,6.16
1709611962.363408,1.60
1709611962.363489,6.17
1709611962.363548,1.61
1709611962.363605,6.18
1709611962.363662,1.62
1709611962.363723,6.19
1709611962.363780,1.63
1709611962.363858,6.20
1709611962.363939,1.64
1709611962.364018,6.21
1709611962.364068,1.65
1709611962.364118,6.22
1709611962.364167,1.66
1709611962.364216,6.23
1709611962.364265,1.67
1709611962.364313,6.24
1709611962.364369,1.68
1709611962.364421,2.3
1709611962.364469,1.69
1709611962.364517,2.4
1709611962.364566,1.70
1709611962.364614,2.5
1709611962.364662,1.71
1709611962.364711,2.6
1709611962.364758,1.72
1709611962.364807,2.7
1709611962.364856,1.73
1709611962.364904,2.8
1709611962.364953,1.74
1709611962.365001,2.9
1709611962.365054,1.75
1709611962.365103,2.10
1709611962.365150,1.76
1709611962.365199,2.11
1709611962.365247,1.77
1709611962.365295,2.12
1709611962.365348,1.78
1709611962.365398,2.13
1709611962.365446,1.79
1709611962.365494,2.14
1709611962.365542,1.80
1709611962.365590,2.15
1709611962.365641,1.81
1709611962.365689,2.16
1709611962.365737,1.82
1709611962.365791,2.17
1709611962.365840,1.83
1709611962.365887,2.18
1709611962.365935,1.84
1709611962.365982,2.19
1709611962.366032,1.85
1709611962.366080,2.20
1709611962.366128,1.86
1709611962.366181,2.21
1709611962.366229,1.87
1709611962.366277,2.22
1709611962.366331,1.88
1709611962.366380,2.23
1709611962.366428,1.89
1709611962.366475,2.24
1709611962.366523,1.90
1709611962.366571,2.25
1709611962.366619,1.91
1709611962.366666,2.26
1709611962.366714,1.92
1709611962.366762,2.27
1709611962.366809,1.93
1709611962.366857,2.28
1709611962.366905,1.94
1709611962.366954,2.29
1709611962.367001,1.95
1709611962.367060,2.30
1709611962.367109,1.96
1709611962.367157,2.31
1709611962.367205,1.97
1709611962.367256,2.32
1709611962.367310,1.98
1709611962.367365,2.33
1709611962.367415,1.99
1709611962.367464,2.34
1709611962.367512,1.100
1709611962.367561,2.35
1709611962.367609,1.101
1709611962.367667,2.36
1709611962.367717,1.102
1709611962.367770,2.37
1709611962.367819,1.103
1709611962.367868,2.38
1709611962.367934,1.104
1709611962.367984,2.39
1709611962.368032,1.105
1709611962.368081,2.40
1709611962.368128,1.106
1709611962.368177,2.41
1709611962.368225,1.107
1709611962.368272,2.42
1709611962.368320,1.108
1709611962.389479,2.43
1709611962.389568,1.109
1709611962.389627,2.44
1709611962.389685,1.110
1709611962.389743,2.45
1709611962.389818,1.111
1709611962.389878,2.46
1709611962.389935,1.112
1709611962.389994,2.47
1709611962.390060,1.113
1709611962.390115,2.48
1709611962.390165,1.114
1709611962.390224,2.49
1709611962.390273,1.115
1709611962.390323,2.50
1709611962.390383,1.116
1709611962.390434,2.51
1709611962.390483,1.117
1709611962.390536,2.52
1709611962.390592,1.118
1709611962.390642,2.53
1709611962.390696,1.119
1709611962.390752,2.54
1709611962.390802,1.120
1709611962.390861,2.55
1709611962.390917,1.121
1709611962.390967,2.56
1709611962.391015,1.122
1709611962.391073,2.57
1709611962.391125,1.123
1709611962.391173,2.58
1709611962.391232,1.124
1709611962.391283,2.59
1709611962.391344,1.125
1709611962.391407,2.60
1709611962.391459,1.126
1709611962.391512,2.61
1709611962.391567,1.127
1709611962.391619,2.62
1709611962.391669,1.128
1709611962.391722,2.63
1709611962.391776,1.129
1709611962.391832,2.64
1709611962.391882,1.130
1709611962.391935,2.65
1709611962.391991,1.131
1709611962.392042,2.66
1709611962.392092,1.132
1709611962.392146,2.67
1709611962.392199,1.133
1709611962.392259,2.68
1709611962.392309,1.134
1709611962.392370,2.69
1709611962.392426,1.135
1709611962.392476,2.70
1709611962.392527,1.136
1709611962.392577,2.71
1709611962.392634,1.137
1709611962.392689,2.72
1709611962.392742,1.138
1709611962.392796,2.73
1709611962.392844,1.139
1709611962.392898,2.74
1709611962.392948,1.140
1709611962.392998,2.75
1709611962.393046,1.141
1709611962.393101,2.76
1709611962.393165,1.142
1709611962.393214,2.77
1709611962.393262,1.143
1709611962.393315,2.78
1709611962.393373,1.144
1709611962.393423,2.79
1709611962.393475,1.145
1709611962.393525,2.80
1709611962.393573,1.146
1709611962.393651,2.81
1709611962.393700,1.147
1709611962.393750,2.82
1709611962.393801,1.148
1709611962.393850,2.83
1709611962.393914,1.149
1709611962.393965,2.84
1709611962.394020,1.150
1709611962.394076,2.85
1709611962.394125,1.151
1709611962.394175,2.86
1709611962.394226,1.152
1709611962.394275,2.87
1709611962.394324,1.153
1709611962.394383,2.88
1709611962.394434,1.154
1709611962.394491,2.89
1709611962.394563,1.155
1709611962.394628,2.90
1709611962.394693,1.156
1709611962.394750,2.91
1709611962.394800,1.157
1709611962.422791,2.92
1709611962.422898,1.158
1709611962.422959,2.93
1709611962.423023,1.159
1709611962.423072,2.94
1709611962.423119,1.160
1709611962.423168,2.95
1709611962.423217,1.161
1709611962.423265,2.96
1709611962.423313,1.162
1709611962.423369,2.97
1709611962.423422,1.163
1709611962.423471,2.98
1709611962.423517,1.164
1709611962.423565,2.99
1709611962.423613,1.165
1709611962.423660,2.100
1709611962.423709,1.166
1709611962.423757,2.101
1709611962.423805,1.167
1709611962.423853,2.102
1709611962.423902,1.168
1709611962.423950,2.103
1709611962.423998,1.169
1709611962.424045,2.104
1709611962.424094,1.170
1709611962.424142,2.105
1709611962.424191,1.171
1709611962.424239,2.106
1709611962.424286,1.172
1709611962.424341,2.107
1709611962.424390,1.173
1709611962.424438,2.108
1709611962.424485,1.174
1709611962.424533,3.147
1709611962.424580,2.109
1709611962.424628,1.175
1709611962.424675,2.110
1709611962.424722,2.111
1709611962.424769,2.112
1709611962.424818,2.113
1709611962.424865,2.114
1709611962.424914,2.115
1709611962.424961,2.116
1709611962.425009,2.117
1709611962.425056,2.118
1709611962.425104,2.119
1709611962.425152,2.120
1709611962.425199,2.121
1709611962.425246,2.122
1709611962.425305,2.123
1709611962.425359,2.124
1709611962.425408,2.125
1709611962.425456,2.126
1709611962.425504,2.127
1709611962.425552,2.128
1709611962.425601,2.129
1709611962.425648,2.130
1709611962.425695,4.138
1709611962.425752,3.148
1709611962.425800,7.15
1709611962.425848,7.16
1709611962.425896,8.3
1709611962.425943,3.149
1709611962.425992,3.150
1709611962.426039,6.25
1709611962.426086,1.176
1709611962.426135,2.131
1709611962.426182,1.177
1709611962.426229,2.132
1709611962.426278,2.133
1709611962.426324,7.17
1709611962.426378,7.18
1709611962.426426,1.178
1709611962.426474,8.4
1709611962.426521,1.179
1709611962.426571,8.5
1709611962.426618,1.180
1709611962.426666,8.6
1709611962.426714,7.19
1709611962.426761,4.139
1709611962.426810,6.26
1709611962.426857,6.27
1709611962.426904,6.28
1709611962.426964,3.151
1709611962.427016,2.134
1709611962.427064,3.152
1709611962.534374,6.29
1709611962.534500,7.20
1709611962.590488,8.7
1709611962.716372,6.30
1709611962.716507,3.153
1709611962.857372,3.154
1709611962.857487,5.88
1709611962.857567,8.8
1709611962.953439,7.21
1709611962.953545,4.140
1709611962.953600,5.89
1709611962.953650,1.181
1709611962.953702,5.90
1709611963.002445,6.31
1709611963.177534,2.135
1709611963.177617,5.91
1709611963.177670,8.9
1709611963.177720,5.92
1709611963.177770,7.22
1709611963.177866,1.182
1709611963.177939,2.136
1709611963.177997,2.137
1709611963.178046,5.93
1709611963.178099,2.138
1709611963.178148,6.32
1709611963.178196,2.139
1709611963.178246,1.183
1709611963.178297,5.94
1709611963.178360,8.10
1709611963.178414,2.140
1709611963.226784,6.33
1709611963.226884,8.11
1709611963.415431,8.12
1709611963.415526,4.141
1709611963.415579,8.13
1709611963.500431,4.142
1709611963.500539,2.141
1709611963.500589,5.95
1709611963.500643,4.143
1709611963.500692,8.14
1709611963.500759,7.23
1709611963.500816,8.15
1709611963.500864,7.24
1709611963.542497,3.155
1709611963.584466,3.156
1709611963.584578,7.25
1709611963.584632,3.157
1709611963.584699,4.144
1709611963.668427,6.34
1709611963.668532,2.142
1709611963.668585,6.35
1709611963.805511,3.158
1709611963.861477,7.26
1709611963.861594,3.159
1709611963.861645,1.184
1709611963.861695,4.145
1709611963.972462,2.143
1709611964.045666,7.27
1709611964.045812,7.28
1709611964.094440,2.144
1709611964.094537,5.96
1709611964.185513,1.185
1709611964.185616,5.97
1709611964.185667,1.186
1709611964.185722,5.98
1709611964.185771,1.187
1709611964.185821,7.29
1709611964.185872,2.145
1709611964.290361,4.146
1709611964.290471,5.99
1709611964.290522,8.16
1709611964.332377,4.147
1709611964.423499,8.17
1709611964.423616,6.36
1709611964.550402,6.37
1709611964.550477,8.18
1709611964.550527,1.188
1709611964.550591,1.189
1709611964.550641,6.38
1709611964.550689,8.19
1709611964.634387,4.148
1709611964.718350,7.30
1709611964.908450,2.146
1709611964.908541,2.147
1709611964.908592,1.190
1709611964.908648,5.100
1709611964.908697,6.39
1709611964.908746,5.101
1709611964.957429,7.31
1709611964.957525,8.20
1709611964.957576,4.149
1709611964.957628,5.102
1709611964.957678,3.160
1709611964.957726,7.32
1709611964.957776,5.103
1709611964.957824,1.191
1709611965.041494,5.104
1709611965.146355,3.161
1709611965.146470,1.192
1709611965.146522,2.148
1709611965.146577,6.40
1709611965.146627,8.21
1709611965.146676,7.33
1709611965.146725,8.22
1709611965.188368,1.193
1709611965.272591,3.162
1709611965.321492,3.163
1709611965.321604,1.194
1709611965.321655,4.150
1709611965.321704,6.41
1709611965.321760,5.105
1709611965.321809,3.164
1709611965.321857,6.42
1709611965.321908,7.34
1709611965.321955,7.35
1709611965.322004,7.36
1709611965.448477,1.195
1709611965.448579,4.151
1709611965.448630,5.106
1709611965.448679,2.149
1709611965.490363,6.43
1709611965.490466,6.44
1709611965.490521,6.45
1709611965.490570,8.23
1709611965.595343,8.24
1709611965.595444,5.107
1709611965.637525,5.108
1709611965.637615,1.196
1709611965.851419,4.152
1709611965.851542,5.109
1709611965.851593,6.46
1709611965.851642,1.197
1709611965.851691,4.153
1709611965.851739,8.25
1709611965.893391,6.47
1709611965.893485,4.154
1709611965.893535,6.48
1709611965.893595,4.155
1709611965.893643,7.37
1709611965.893693,4.156
1709611966.061386,2.150
1709611966.061493,8.26
1709611966.061550,3.165
1709611966.103619,5.110
1709611966.187428,5.111
1709611966.187518,8.27
1709611966.187579,8.28
1709611966.187629,2.151
1709611966.440419,7.38
1709611966.440510,4.157
1709611966.440561,1.198
1709611966.503548,4.158
1709611966.503656,6.49
1709611966.503707,4.159
1709611966.503755,8.29
1709611966.503805,6.50
1709611966.503853,5.112
1709611966.503901,7.39
1709611966.503950,8.30
1709611966.503998,8.31
1709611966.504050,5.113
1709611966.545356,1.199
1709611966.713515,4.160
1709611966.713596,2.152
1709611966.861566,2.153
1709611966.861660,5.114
1709611966.861711,8.32
1709611966.952498,6.51
1709611966.952606,5.115
1709611966.952657,5.116
1709611966.952706,6.52
1709611966.952754,8.33
1709611966.952802,4.161
1709611966.952851,1.200
1709611966.952898,6.53
1709611966.952946,7.40
1709611967.120411,5.117
1709611967.120487,3.166
1709611967.204408,6.54
1709611967.204523,3.167
1709611967.204576,8.34
1709611967.204628,3.168
1709611967.288355,5.118
1709611967.373357,7.41
1709611967.373462,5.119
1709611967.373514,2.154
1709611967.373568,2.155
1709611967.373616,7.42
1709611967.373664,2.156
1709611967.373713,3.169
1709611967.373762,4.162
1709611967.373811,3.170
1709611967.373858,3.171
1709611967.373908,5.120
1709611967.373956,8.35
1709611967.374004,5.121
1709611967.458356,1.201
1709611967.458465,5.122
1709611967.595419,1.202
1709611967.595490,6.55
1709611967.690617,7.43
1709611967.690706,4.163
1709611967.690758,2.157
1709611967.690807,4.164
1709611967.690856,1.203
1709611967.690909,1.204
1709611967.732499,7.44
1709611967.732603,1.205
1709611967.864610,7.45
1709611967.864720,5.123
1709611967.948371,4.165
1709611967.948482,2.158
1709611967.948535,5.124
1709611968.032367,4.166
1709611968.032478,8.36
1709611968.078380,5.125
1709611968.078516,6.56
1709611968.078569,3.172
1709611968.078621,6.57
1709611968.182529,6.58
1709611968.182647,4.167
1709611968.299397,2.159
1709611968.352452,4.168
1709611968.466494,4.169
1709611968.466601,3.173
1709611968.466655,5.126
1709611968.466706,1.206
1709611968.466756,4.170
1709611968.466807,7.46
1709611968.466858,1.207
1709611968.466907,3.174
1709611968.508368,5.127
1709611968.676371,2.160
1709611968.676477,4.171
1709611968.676530,4.172
1709611968.676596,6.59
1709611968.676656,4.173
1709611968.676706,3.175
1709611968.676755,8.37
1709611968.718410,2.161
1709611968.718515,5.128
1709611968.718566,8.38
1709611968.718661,3.176
1709611968.718717,5.129
1709611968.803364,7.47
1709611968.803468,7.48
1709611968.803520,6.60
1709611968.803570,2.162
1709611968.852368,8.39
1709611968.852465,4.174
1709611968.852516,2.163
1709611968.852566,4.175
1709611968.852615,4.176
1709611969.062355,2.164
1709611969.104528,7.49
1709611969.104631,6.61
1709611969.104682,8.40
1709611969.188534,3.177
1709611969.188613,1.208
1709611969.188663,4.177
1709611969.188717,8.41
1709611969.188766,3.178
1709611969.230378,2.165
1709611969.230477,5.130
1709611969.230535,3.179
1709611969.620464,2.166
1709611969.620537,1.209
1709611969.620598,8.42
1709611969.674358,2.167
1709611969.674451,5.131
1709611969.674502,7.50
1709611969.674550,1.210
1709611969.674600,2.168
1709611969.674655,5.132
1709611969.674704,1.211
1709611969.674753,1.212
1709611969.722499,6.62
1709611969.722605,3.180
1709611969.893434,2.169
1709611969.893531,5.133
1709611969.893583,4.178
1709611969.893636,5.134
1709611969.893686,3.181
1709611969.893736,5.135
1709611969.893785,7.51
1709611970.019353,8.43
1709611970.154444,4.179
1709611970.154555,1.213
1709611970.154606,1.214
1709611970.256367,5.136
1709611970.382479,5.137
1709611970.382593,1.215
1709611970.382679,1.216
1709611970.382731,7.52
1709611970.382780,1.217
1709611970.382828,1.218
1709611970.382878,1.219
1709611970.382927,3.182
1709611970.467401,1.220
1709611970.467502,4.180
1709611970.467557,2.170
1709611970.467606,8.44
1709611970.593349,7.53
1709611970.635393,7.54
1709611970.635491,8.45
1709611970.635541,5.138
1709611970.635589,2.171
1709611970.869363,6.63
1709611970.869465,6.64
1709611970.869516,1.221
1709611970.869588,7.55
1709611970.869638,4.181
1709611970.869699,2.172
1709611970.953403,6.65
1709611971.037449,1.222
1709611971.037552,5.139
1709611971.121366,4.182
1709611971.121470,2.173
1709611971.121520,1.223
1709611971.121574,1.224
1709611971.121623,5.140
1709611971.121673,7.56
1709611971.121722,1.225
1709611971.121777,6.66
1709611971.121835,2.174
1709611971.121887,6.67
1709611971.121936,7.57
1709611971.121986,4.183
1709611971.205379,8.46
1709611971.205490,8.47
1709611971.205544,3.183
1709611971.205593,8.48
1709611971.205642,2.175
1709611971.205690,5.141
1709611971.247631,1.226
1709611971.289361,6.68
1709611971.289460,6.69
1709611971.394433,2.176
1709611971.394534,8.49
1709611971.394589,1.227
1709611971.394642,6.70
1709611971.437566,8.50
1709611971.437675,8.51
1709611971.521358,5.142
1709611971.521463,6.71
1709611971.521514,8.52
1709611971.521564,5.143
1709611971.563439,1.228
1709611971.563546,8.53
1709611971.563599,2.177
1709611971.563648,1.229
1709611971.563701,3.184
1709611971.563750,2.178
1709611971.563798,3.185
1709611971.563851,8.54
1709611971.647501,4.184
1709611971.647588,7.58
1709611971.647659,5.144
1709611971.828357,3.186
1709611971.828455,4.185
1709611971.828506,6.72
1709611971.828557,3.187
1709611971.828607,1.230
1709611971.997443,4.186
1709611972.081390,4.187
1709611972.081497,6.73
1709611972.165478,3.188
1709611972.207386,5.145
1709611972.207465,5.146
1709611972.207515,7.59
1709611972.207565,7.60
1709611972.291507,8.55
1709611972.291604,1.231
1709611972.291655,6.74
1709611972.291704,4.188
1709611972.333392,7.61
1709611972.333496,1.232
1709611972.333549,6.75
1709611972.333598,1.233
1709611972.333648,5.147
1709611972.333708,2.179
1709611972.333756,4.189
1709611972.333805,1.234
1709611972.333854,3.189
1709611972.333901,8.56
1709611972.502567,6.76
1709611972.502674,8.57
1709611972.502725,7.62
1709611972.502776,8.58
1709611972.544459,6.77
1709611972.544556,4.190
1709611972.544612,3.190
1709611972.758412,3.191
1709611972.758516,4.191
1709611972.758568,2.180
1709611972.758622,5.148
1709611972.801413,2.181
1709611972.801510,5.149
1709611972.801560,6.78
1709611972.801610,6.79
1709611972.801663,3.192
1709611972.801712,6.80
1709611972.801760,1.235
1709611972.885350,1.236
1709611972.885454,1.237
1709611972.885506,3.193
1709611972.969492,2.182
1709611972.969604,1.238
1709611972.969665,6.81
1709611972.969715,8.59
1709611972.969765,6.82
1709611972.969814,1.239
1709611972.969867,7.63
1709611973.165651,3.194
1709611973.165768,2.183
1709611973.165823,5.150
1709611973.333454,5.151
1709611973.333560,4.192
1709611973.333611,7.64
1709611973.333660,1.240
1709611973.333709,8.60
1709611973.460388,2.184
1709611973.460490,1.241
1709611973.460557,2.185
1709611973.460608,1.242
1709611973.460656,3.195
1709611973.460706,7.65
1709611973.460753,4.193
1709611973.460815,1.243
1709611973.607360,2.186
1709611973.607465,8.61
1709611973.670375,6.83
1709611973.670464,4.194
1709611973.844741,1.244
1709611973.844853,3.196
1709611973.844905,7.66
1709611973.844954,4.195
1709611973.845004,5.152
1709611973.845054,7.67
1709611973.845102,4.196
1709611973.845151,3.197
1709611973.845198,1.245
1709611973.845255,3.198
1709611973.845305,2.187
1709611974.180667,4.197
1709611974.180744,8.62
1709611974.180799,8.63
1709611974.180849,7.68
1709611974.180899,5.153
1709611974.180957,8.64
1709611974.181007,3.199
1709611974.181057,4.198
1709611974.181114,3.200
1709611974.181165,3.201
1709611974.181216,1.246
1709611974.181267,8.65
1709611974.181317,1.247
1709611974.181373,3.202
1709611974.181428,1.248
1709611974.181479,8.66
1709611974.306511,8.67
1709611974.306596,5.154
1709611974.306649,5.155
1709611974.306698,5.156
1709611974.306746,3.203
1709611974.306795,2.188
1709611974.306844,7.69
1709611974.433624,8.68
1709611974.433729,3.204
1709611974.433780,2.189
1709611974.433829,3.205
1709611974.433882,2.190
1709611974.517573,8.69
1709611974.517649,7.70
1709611974.770653,3.206
1709611974.770731,8.70
1709611974.770782,3.207
1709611974.770830,8.71
1709611974.770880,7.71
1709611974.770931,3.208
1709611974.812422,3.209
1709611974.854405,8.72
1709611974.854497,5.157
1709611974.854563,8.73
1709611975.043541,2.191
1709611975.043666,2.192
1709611975.043717,2.193
1709611975.043770,2.194
1709611975.043820,3.210
1709611975.043869,1.249
1709611975.169387,5.158
1709611975.169487,3.211
1709611975.169541,8.74
1709611975.169593,1.250
1709611975.169670,2.195
1709611975.253472,4.199
1709611975.253565,6.84
1709611975.253617,8.75
1709611975.379612,4.200
1709611975.379709,6.85
1709611975.379761,2.196
1709611975.379809,7.72
1709611975.464523,2.197
1709611975.548475,8.76
1709611975.548573,2.198
1709611975.548624,4.201
1709611975.716474,5.159
1709611975.716572,3.212
1709611975.716628,7.73
1709611975.716693,8.77
1709611975.716742,4.202
1709611975.716792,5.160
1709611975.716838,4.203
1709611975.716887,6.86
1709611975.716935,5.161
1709611975.716985,5.162
1709611975.717034,4.204
1709611975.717084,2.199
1709611975.717132,2.200
1709611975.808379,6.87
1709611975.808476,6.88
1709611975.808526,8.78
1709611975.976353,7.74
1709611975.976457,7.75
1709611975.976507,5.163
1709611975.976557,6.89
1709611975.976606,1.251
1709611975.976654,8.79
1709611975.976709,6.90
1709611975.976757,6.91
1709611976.063470,2.201
1709611976.106743,2.202
1709611976.323488,1.252
1709611976.407645,4.205
1709611976.407757,2.203
1709611976.407809,5.164
1709611976.407862,3.213
1709611976.407911,8.80
1709611976.407959,5.165
1709611976.408014,3.214
1709611976.597480,1.253
1709611976.597581,8.81
1709611976.597631,4.206
1709611976.597687,6.92
1709611976.597735,3.215
1709611976.597784,3.216
1709611976.597833,1.254
1709611976.597883,8.82
1709611976.597932,6.93
1709611976.597980,3.217
1709611976.598027,6.94
1709611976.598076,5.166
1709611976.598125,1.255
1709611976.681585,5.167
1709611976.681669,1.256
1709611976.681722,2.204
1709611976.681772,8.83
1709611976.681822,3.218
1709611976.723557,1.257
1709611976.808475,6.95
1709611976.808579,1.258
1709611976.892370,4.207
1709611976.892473,7.76
1709611976.976635,6.96
1709611976.976714,2.205
1709611976.976764,3.219
1709611976.976817,2.206
1709611976.976866,8.84
1709611976.976915,8.85
1709611976.976963,5.168
1709611976.977012,8.86
1709611976.977062,4.208
1709611976.977109,6.97
1709611976.977160,1.259
1709611977.109520,7.77
1709611977.109642,5.169
1709611977.109696,7.78
1709611977.256545,4.209
1709611977.256622,8.87
1709611977.424491,8.88
1709611977.424622,4.210
1709611977.424673,6.98
1709611977.424723,5.170
1709611977.424773,1.260
1709611977.424826,8.89
1709611977.424877,6.99
1709611977.424926,8.90
1709611977.424974,2.207
1709611977.425023,6.100
1709611977.425071,8.91
1709611977.425119,4.211
1709611977.425168,2.208
1709611977.593455,4.212
1709611977.593564,1.261
1709611977.593615,8.92
1709611977.684479,7.79
1709611977.811379,3.220
1709611977.811475,4.213
1709611977.811527,3.221
1709611977.811577,4.214
1709611977.811627,8.93
1709611977.811676,4.215
1709611977.811724,8.94
1709611977.893402,6.101
1709611977.893530,6.102
1709611977.893582,8.95
1709611977.893631,4.216
1709611977.893680,8.96
1709611977.893729,4.217
1709611977.893778,1.262
1709611977.893826,4.218
1709611978.173584,5.171
1709611978.173690,1.263
1709611978.173740,6.103
1709611978.257415,6.104
1709611978.257502,4.219
1709611978.257562,4.220
1709611978.257612,8.97
1709611978.257661,3.222
1709611978.299383,1.264
1709611978.299478,4.221
1709611978.398363,5.172
1709611978.398454,5.173
1709611978.398509,6.105
1709611978.452391,2.209
1709611978.452492,7.80
1709611978.565366,3.223
1709611978.565474,2.210
1709611978.565525,2.211
1709611978.649418,3.224
1709611978.783388,3.225
1709611978.783494,2.212
1709611978.783544,6.106
1709611978.783592,8.98
1709611978.783642,2.213
1709611978.783689,8.99
1709611978.867434,2.214
1709611978.867535,3.226
1709611978.867586,7.81
1709611978.867635,2.215
1709611978.867684,8.100
1709611978.951455,2.216
1709611978.951555,6.107
1709611978.951607,3.227
1709611979.035468,8.101
1709611979.035576,6.108
1709611979.035636,5.174
1709611979.035687,4.222
1709611979.035738,5.175
1709611979.119441,3.228
1709611979.119542,4.223
1709611979.273457,2.217
1709611979.273570,7.82
1709611979.273623,4.224
1709611979.399373,2.218
1709611979.399471,3.229
1709611979.399536,1.265
1709611979.568639,2.219
1709611979.568764,3.230
1709611979.568816,1.266
1709611979.568866,1.267
1709611979.568920,2.220
1709611979.610389,4.225
1709611979.610487,8.102
1709611979.610551,3.231
1709611979.610606,6.109
1709611979.610656,3.232
1709611979.610731,1.268
1709611979.610782,5.176
1709611979.694366,3.233
1709611979.694466,7.83
1709611979.694518,3.234
1709611979.694567,3.235
1709611979.694616,4.226
1709611979.694665,7.84
1709611979.694713,8.103
1709611979.694763,8.104
1709611979.786470,6.110
1709611979.912658,2.221
1709611979.912769,7.85
1709611979.912822,3.236
1709611979.912870,2.222
1709611979.912919,5.177
1709611979.954398,3.237
1709611979.954504,6.111
1709611979.954557,6.112
1709611979.954611,5.178
1709611979.954660,2.223
1709611979.954710,3.238
1709611979.954758,2.224
1709611979.954808,3.239
1709611979.954856,2.225
1709611979.954906,8.105
1709611980.122440,2.226
1709611980.122529,2.227
1709611980.122588,1.269
1709611980.122637,2.228
1709611980.122685,4.227
1709611980.122732,6.113
1709611980.122786,8.106
1709611980.122833,7.86
1709611980.122881,3.240
1709611980.164473,6.114
1709611980.269362,4.228
1709611980.269459,4.229
1709611980.363478,1.270
1709611980.363589,1.271
1709611980.363645,3.241
1709611980.363697,5.179
1709611980.363746,3.242
1709611980.363800,5.180
1709611980.455507,4.230
1709611980.497425,1.272
1709611980.497518,4.231
1709611980.497568,1.273
1709611980.497617,1.274
1709611980.581499,5.181
1709611980.581627,8.107
1709611980.581684,8.108
1709611980.707545,6.115
1709611980.707621,8.109
1709611980.707672,4.232
1709611980.707721,8.110
1709611980.707774,6.116
1709611980.707824,4.233
1709611980.707873,3.243
1709611980.707921,8.111
1709611980.883528,6.117
1709611980.932560,8.112
1709611980.932637,2.229
1709611981.016478,2.230
1709611981.016569,6.118
1709611981.016619,2.231
1709611981.142379,2.232
1709611981.142489,7.87
1709611981.310478,1.275
1709611981.310579,8.113
1709611981.310635,8.114
1709611981.310685,2.233
1709611981.310735,2.234
1709611981.310782,2.235
1709611981.310833,2.236
1709611981.310903,4.234
1709611981.310951,7.88
1709611981.311000,3.244
1709611981.311048,7.89
1709611981.311095,8.115
1709611981.311144,5.182
1709611981.311191,7.90
1709611981.311239,8.116
1709611981.311287,2.237
1709611981.311342,6.119
1709611981.311392,4.235
1709611981.777371,1.276
1709611981.777486,3.245
1709611981.777537,7.91
1709611981.777591,6.120
1709611981.777641,3.246
1709611981.777709,5.183
1709611981.777762,5.184
1709611981.777814,1.277
1709611981.777865,6.121
1709611981.777914,2.238
1709611981.777963,3.247
1709611981.778011,2.239
1709611981.778060,2.240
1709611981.778109,4.236
1709611981.778157,3.248
1709611981.778205,3.249
1709611981.778254,8.117
1709611981.778302,1.278
1709611981.983366,5.185
1709611981.983464,5.186
1709611981.983515,6.122
1709611981.983564,5.187
1709611981.983619,5.188
1709611982.150465,7.92
1709611982.150568,7.93
1709611982.150621,7.94
1709611982.318511,2.241
1709611982.318603,8.118
1709611982.318654,1.279
1709611982.318703,2.242
1709611982.318752,6.123
1709611982.318801,1.280
1709611982.318849,4.237
1709611982.402354,7.95
1709611982.529386,3.250
1709611982.718354,4.238
1709611982.718448,6.124
1709611982.718499,1.281
1709611982.718550,8.119
1709611982.718599,4.239
1709611982.718647,7.96
1709611982.718702,7.97
1709611982.718756,1.282
1709611982.718804,2.243
1709611982.815372,6.125
1709611982.815466,2.244
1709611982.815522,2.245
1709611982.866363,3.251
1709611982.866453,4.240
1709611982.866503,5.189
1709611982.866552,4.241
1709611982.866602,5.190
1709611983.091358,3.252
1709611983.091474,3.253
1709611983.091547,7.98
1709611983.213465,5.191
1709611983.213554,5.192
1709611983.213620,4.242
1709611983.213670,1.283
1709611983.297388,3.254
1709611983.297502,4.243
1709611983.297554,1.284
1709611983.339594,6.126
1709611983.339706,3.255
1709611983.339757,6.127
1709611983.445366,7.99
1709611983.445474,8.120
1709611983.445528,2.246
1709611983.571370,1.285
1709611983.571478,6.128
1709611983.571531,1.286
1709611983.571579,3.256
1709611983.571630,1.287
1709611983.571680,5.193
1709611983.676365,5.194
1709611983.676487,7.100
1709611983.676542,6.129
1709611983.676593,1.288
1709611983.760360,4.244
1709611983.760472,1.289
1709611983.760524,2.247
1709611983.760573,8.121
1709611983.760626,7.101
1709611984.019361,5.195
1709611984.019466,3.257
1709611984.019517,6.130
1709611984.019580,5.196
1709611984.019631,5.197
1709611984.019680,4.245
1709611984.072422,3.258
1709611984.072509,1.290
1709611984.072570,5.198
1709611984.072619,5.199
1709611984.072670,6.131
1709611984.072718,5.200
1709611984.072767,7.102
1709611984.072816,3.259
1709611984.216396,5.201
1709611984.216499,5.202
1709611984.216550,1.291
1709611984.216602,7.103
1709611984.216652,5.203
1709611984.216702,7.104
1709611984.216752,2.248
1709611984.335451,7.105
1709611984.335555,2.249
1709611984.335605,4.246
1709611984.335654,5.204
1709611984.504469,2.250
1709611984.504571,2.251
1709611984.588583,8.122
1709611984.588672,2.252
1709611984.588727,7.106
1709611984.588777,6.132
1709611984.588826,8.123
1709611984.588878,6.133
1709611984.806362,4.247
1709611984.806478,2.253
1709611984.806529,4.248
1709611984.806577,6.134
1709611984.806630,4.249
1709611984.806689,6.135
1709611984.890353,3.260
1709611984.932551,8.124
1709611984.932626,4.250
1709611984.932679,1.292
1709611984.932729,8.125
1709611984.932777,4.251
1709611984.932829,5.205
1709611984.932878,1.293
1709611984.932928,4.252
1709611984.932987,8.126
1709611984.933043,3.261
1709611984.933093,2.254
1709611985.107350,8.127
1709611985.107449,3.262
1709611985.107505,1.294
1709611985.107555,2.255
1709611985.191626,5.206
1709611985.191702,8.128
1709611985.191756,6.136
1709611985.359388,6.137
1709611985.359495,5.207
1709611985.359561,5.208
1709611985.359615,6.138
1709611985.486350,2.256
1709611985.486450,4.253
1709611985.486502,2.257
1709611985.486551,8.129
1709611985.486601,1.295
1709611985.486649,8.130
1709611985.535430,3.263
1709611985.535522,6.139
1709611985.535573,5.209
1709611985.535623,2.258
1709611985.535684,1.296
1709611985.619581,1.297
1709611985.661535,4.254
1709611985.795366,3.264
1709611985.795479,5.210
1709611985.795531,5.211
1709611985.795581,8.131
1709611985.795636,4.255
1709611985.795686,7.107
1709611985.844571,7.108
1709611985.844661,6.140
1709611985.928415,4.256
1709611985.928505,7.109
1709611985.928566,1.298
1709611985.928616,8.132
1709611985.928665,7.110
1709611986.159358,4.257
1709611986.159460,7.111
1709611986.159533,5.212
1709611986.159613,3.265
1709611986.159662,8.133
1709611986.159711,6.141
1709611986.159766,8.134
1709611986.246352,3.266
1709611986.246450,2.259
1709611986.246502,1.299
1709611986.246570,6.142
1709611986.246620,3.267
1709611986.299349,1.300
1709611986.397445,5.213
1709611986.503538,6.143
1709611986.556477,7.112
1709611986.556586,2.260
1709611986.556638,5.214
1709611986.556687,3.268
1709611986.556736,7.113
1709611986.632487,7.114
1709611986.632596,3.269
1709611986.737524,6.144
1709611986.737643,5.215
1709611986.737694,3.270
1709611986.737765,5.216
1709611986.822462,3.271
1709611986.822573,8.135
1709611987.032528,6.145
1709611987.032630,3.272
1709611987.032699,4.258
1709611987.032755,6.146
1709611987.032804,2.261
1709611987.221359,7.115
1709611987.263527,5.217
1709611987.263660,5.218
1709611987.263716,8.136
1709611987.263765,5.219
1709611987.263814,1.301
1709611987.263863,7.116
1709611987.263911,8.137
1709611987.263967,7.117
1709611987.264016,3.273
1709611987.439471,3.274
1709611987.460552,2.262
1709611987.502395,4.259
1709611987.691391,4.260
1709611987.691486,3.275
1709611987.691536,6.147
1709611987.691584,6.148
1709611987.691633,1.302
1709611987.786505,7.118
1709611987.786576,8.138
1709611987.786640,7.119
1709611987.786712,5.220
1709611987.786761,7.120
1709611987.786809,7.121
1709611987.848457,4.261
1709611987.848568,6.149
1709611987.848619,4.262
1709611987.848669,5.221
1709611987.848717,7.122
1709611987.890465,3.276
1709611988.205437,7.123
1709611988.205572,1.303
1709611988.205624,6.150
1709611988.205673,2.263
1709611988.205725,7.124
1709611988.205774,8.139
1709611988.205824,2.264
1709611988.247373,1.304
1709611988.458408,5.222
1709611988.458516,3.277
1709611988.542541,8.140
1709611988.542682,4.263
1709611988.542733,1.305
1709611988.542783,1.306
1709611988.542832,3.278
1709611988.542881,8.141
1709611988.640368,5.223
1709611988.640501,4.264
1709611988.640571,2.265
1709611988.801462,7.125
1709611988.801565,4.265
1709611988.850564,2.266
1709611989.025580,6.151
1709611989.025719,5.224
1709611989.067444,8.142
1709611989.067531,6.152
1709611989.151366,4.266
1709611989.151474,8.143
1709611989.151528,4.267
1709611989.151577,4.268
1709611989.431818,6.153
1709611989.431922,5.225
1709611989.431979,5.226
1709611989.432053,5.227
1709611989.432104,1.307
1709611989.432157,5.228
1709611989.432205,3.279
1709611989.432265,1.308
1709611989.432317,2.267
1709611989.432375,5.229
1709611989.432430,8.144
1709611989.432479,7.126
1709611989.515398,4.269
1709611989.515505,3.280
1709611989.515557,8.145
1709611989.515607,7.127
1709611989.515656,4.270
1709611989.599570,6.154
1709611989.599656,4.271
1709611989.599709,3.281
1709611989.599758,3.282
1709611989.599806,8.146
1709611989.599875,5.230
1709611989.775393,3.283
1709611989.775506,4.272
1709611989.858442,1.309
1709611989.858570,5.231
1709611989.858622,1.310
1709611989.858673,8.147
1709611989.900398,8.148
1709611989.900498,7.128
1709611989.900558,2.268
1709611989.900607,2.269
1709611989.900657,1.311
1709611989.900705,3.284
1709611989.943805,7.129
1709611989.943899,1.312
1709611989.943972,1.313
1709611989.944027,4.273
1709611990.027490,2.270
1709611990.027598,3.285
1709611990.111364,4.274
1709611990.153449,2.271
1709611990.153539,3.286
1709611990.153605,8.149
1709611990.195396,4.275
1709611990.449460,1.314
1709611990.449567,3.287
1709611990.449620,4.276
1709611990.575393,8.150
1709611990.575488,2.272
1709611990.575541,5.232
1709611990.575590,4.277
1709611990.747367,5.233
1709611990.747496,6.155
1709611990.747548,6.156
1709611990.747597,7.130
1709611990.747646,2.273
1709611990.747694,7.131
1709611990.747743,1.315
1709611990.747801,3.288
1709611990.747850,8.151
1709611990.747898,6.157
1709611990.747948,4.278
1709611990.748002,6.158
1709611990.832415,6.159
1709611990.832549,8.152
1709611990.958458,1.316
1709611990.958566,7.132
1709611990.958634,7.133
1709611990.958688,5.234
1709611990.958736,7.134
1709611991.084358,2.274
1709611991.084481,8.153
1709611991.126356,1.317
1709611991.126454,2.275
1709611991.126503,6.160
1709611991.126554,7.135
1709611991.168469,3.289
1709611991.168595,1.318
1709611991.334363,2.276
1709611991.334464,3.290
1709611991.334538,7.136
1709611991.334590,3.291
1709611991.334640,2.277
1709611991.334688,5.235
1709611991.334744,5.236
1709611991.334795,2.278
1709611991.334851,6.161
1709611991.334900,3.292
1709611991.387512,7.137
1709611991.494402,5.237
1709611991.494528,7.138
1709611991.494584,7.139
1709611991.494636,7.140
1709611991.494685,6.162
1709611991.494738,7.141
1709611991.494787,2.279
1709611991.494846,2.280
1709611991.494900,5.238
1709611991.494951,3.293
1709611991.598356,1.319
1709611991.598455,7.142
1709611991.598506,1.320
1709611991.598556,7.143
1709611991.598607,4.279
1709611991.598657,4.280
1709611991.648431,6.163
1709611991.648538,2.281
1709611991.797538,5.239
1709611991.797725,5.240
1709611991.797804,1.321
1709611991.797863,4.281
1709611991.797921,6.164
1709611991.839577,4.282
1709611991.839704,5.241
1709611991.839758,6.165
1709611991.839827,3.294
1709611991.839878,6.166
1709611992.007375,5.242
1709611992.007497,4.283
1709611992.091518,1.322
1709611992.091716,8.154
1709611992.091770,6.167
1709611992.091821,8.155
1709611992.091871,6.168
1709611992.140363,7.144
1709611992.140516,8.156
1709611992.245353,6.169
1709611992.245462,7.145
1709611992.245533,6.170
1709611992.287360,5.243
1709611992.287463,7.146
1709611992.287515,5.244
1709611992.287564,7.147
1709611992.371357,4.284
1709611992.371487,6.171
1709611992.371538,8.157
1709611992.371588,6.172
1709611992.371644,8.158
1709611992.462479,7.148
1709611992.521539,5.245
1709611992.570392,7.149
1709611992.612518,1.323
1709611992.612606,2.282
1709611992.612665,2.283
1709611992.612714,5.246
1709611992.612763,3.295
1709611992.612817,6.173
1709611992.696861,7.150
1709611992.696951,8.159
1709611992.697003,5.247
1709611992.738353,1.324
1709611992.738456,8.160
1709611992.738508,2.284
1709611992.907482,7.151
1709611992.907584,6.174
1709611992.907635,8.161
1709611992.907689,6.175
1709611992.907739,8.162
1709611992.949434,1.325
1709611992.991445,4.285
1709611992.991553,6.176
1709611993.033385,2.285
1709611993.117687,7.152
1709611993.117789,6.177
1709611993.117840,8.163
1709611993.166456,8.164
1709611993.250391,4.286
1709611993.250490,6.178
1709611993.250541,5.248
1709611993.250595,4.287
1709611993.334361,2.286
1709611993.503403,5.249
1709611993.503515,5.250
1709611993.503565,1.326
1709611993.503616,8.165
1709611993.503668,8.166
1709611993.503716,1.327
1709611993.503766,2.287
1709611993.503814,3.296
1709611993.503863,7.153
1709611993.695514,6.179
1709611993.695617,2.288
1709611993.695669,4.288
1709611993.830783,7.154
1709611993.830897,4.289
1709611993.830953,6.180
1709611993.831002,6.181
1709611993.831053,3.297
1709611993.831103,1.328
1709611993.872370,5.251
1709611993.872467,8.167
1709611993.914339,8.168
1709611994.040366,2.289
1709611994.040470,3.298
1709611994.040520,1.329
1709611994.040571,2.290
1709611994.040621,3.299
1709611994.208539,1.330
1709611994.208680,7.155
1709611994.292386,7.156
1709611994.292489,2.291
1709611994.292545,8.169
1709611994.292609,2.292
1709611994.377400,4.290
1709611994.377476,2.293
1709611994.377533,5.252
1709611994.377582,5.253
1709611994.377633,5.254
1709611994.377687,6.182
1709611994.377737,5.255
1709611994.462712,5.256
1709611994.462824,8.170
1709611994.462881,8.171
1709611994.693358,2.294
1709611994.693468,1.331
1709611994.840360,8.172
1709611994.840469,7.157
1709611994.924537,7.158
1709611994.924647,1.332
1709611994.924699,5.257
1709611994.924749,3.300
1709611994.966460,3.301
1709611994.966558,3.302
1709611994.966609,7.159
1709611994.966658,1.333
1709611994.966709,6.183
1709611995.050498,2.295
1709611995.050586,3.303
1709611995.050647,8.173
1709611995.134398,7.160
1709611995.134495,1.334
1709611995.134560,4.291
1709611995.134615,4.292
1709611995.134665,1.335
1709611995.218441,5.258
1709611995.218542,5.259
1709611995.218614,7.161
1709611995.218665,5.260
1709611995.218714,5.261
1709611995.218764,6.184
1709611995.328422,3.304
1709611995.328515,2.296
1709611995.328570,6.185
1709611995.328626,4.293
1709611995.328676,4.294
1709611995.328725,1.336
1709611995.328773,6.186
1709611995.377396,4.295
1709611995.377536,4.296
1709611995.377613,4.297
1709611995.462686,5.262
1709611995.462770,6.187
1709611995.462820,1.337
1709611995.588471,3.305
1709611995.588573,8.174
1709611995.588623,8.175
1709611995.588674,2.297
1709611995.588722,3.306
1709611995.630620,4.298
1709611995.630717,6.188
1709611995.630767,6.189
1709611995.630816,8.176
1709611995.883429,6.190
1709611995.883545,3.307
1709611995.883598,1.338
1709611995.883647,6.191
1709611996.009473,4.299
1709611996.093359,4.300
1709611996.093478,4.301
1709611996.093532,6.192
1709611996.093581,2.298
1709611996.093630,6.193
1709611996.093678,2.299
1709611996.093727,8.177
1709611996.093776,3.308
1709611996.177350,7.162
1709611996.177456,7.163
1709611996.177511,3.309
1709611996.261549,2.300
1709611996.261645,8.178
1709611996.261697,2.301
1709611996.261747,5.263
1709611996.303426,6.194
1709611996.557390,4.302
1709611996.557498,6.195
1709611996.557551,4.303
1709611996.557605,7.164
1709611996.557657,2.302
1709611996.557706,8.179
1709611996.557757,4.304
1709611996.557806,3.310
1709611996.557881,6.196
1709611996.557930,2.303
1709611996.557979,1.339
1709611996.558027,8.180
1709611996.558077,7.165
1709611996.558127,4.305
1709611996.641443,4.306
1709611996.641546,5.264
1709611996.641598,4.307
1709611996.641648,3.311
1709611996.726363,4.308
1709611996.726457,2.304
1709611996.726512,3.312
1709611996.726563,5.265
1709611996.726617,3.313
1709611996.726668,1.340
1709611996.726718,2.305
1709611996.940395,6.197
1709611996.940487,1.341
1709611996.940550,2.306
1709611996.940601,7.166
1709611996.940650,2.307
1709611996.994358,6.198
1709611996.994455,2.308
1709611996.994508,6.199
1709611996.994558,5.266
1709611997.052426,3.314
1709611997.109433,3.315
1709611997.223514,6.200
1709611997.223620,6.201
1709611997.223682,1.342
1709611997.265369,3.316
1709611997.539466,7.167
1709611997.648360,7.168
1709611997.648461,6.202
1709611997.648511,1.343
1709611997.648560,2.309
1709611997.648610,4.309
1709611997.648658,4.310
1709611997.648707,4.311
1709611997.648757,8.181
1709611997.648805,6.203
1709611997.648854,1.344
1709611997.811460,2.310
1709611997.811593,6.204
1709611997.811645,5.267
1709611997.811712,5.268
1709611997.811766,5.269
1709611997.913362,7.169
1709611997.913462,6.205
1709611997.913513,2.311
1709611997.913564,1.345
1709611998.032574,6.206
1709611998.032686,7.170
1709611998.032737,7.171
1709611998.165438,1.346
1709611998.165546,1.347
1709611998.165597,6.207
1709611998.165648,3.317
1709611998.165696,2.312
1709611998.312464,5.270
1709611998.312570,7.172
1709611998.312622,4.312
1709611998.312673,6.208
1709611998.312722,4.313
1709611998.312772,3.318
1709611998.312820,8.182
1709611998.396353,5.271
1709611998.396456,1.348
1709611998.396523,7.173
1709611998.396590,4.314
1709611998.481358,4.315
1709611998.481469,1.349
1709611998.481519,8.183
1709611998.649361,7.174
1709611998.649492,1.350
1709611998.649563,7.175
1709611998.649628,1.351
1709611998.649679,6.209
1709611998.649729,8.184
1709611998.818356,3.319
1709611998.818457,8.185
1709611998.818507,3.320
1709611998.818557,6.210
1709611998.818606,5.272
1709611998.818655,2.313
1709611998.818705,7.176
1709611999.070365,1.352
1709611999.070469,6.211
1709611999.070520,7.177
1709611999.070574,3.321
1709611999.070625,7.178
1709611999.070675,5.273
1709611999.070722,6.212
1709611999.315502,5.274
1709611999.315612,6.213
1709611999.315664,5.275
1709611999.315712,4.316
1709611999.364436,7.179
1709611999.364538,1.353
1709611999.449489,7.180
1709611999.449607,2.314
1709611999.449658,2.315
1709611999.449708,4.317
1709611999.617509,3.322
1709611999.617611,8.186
1709611999.617663,8.187
1709611999.617719,7.181
1709611999.617770,8.188
1709611999.617825,7.182
1709611999.659367,1.354
1709611999.659467,5.276
1709611999.743349,2.316
1709611999.743443,5.277
1709611999.743496,4.318
1709611999.743545,5.278
1709611999.828625,6.214
1709611999.828757,3.323
1709611999.877363,2.317
1709611999.877455,8.189
1709612000.003465,4.319
1709612000.003571,6.215
1709612000.003622,4.320
1709612000.003671,8.190
1709612000.108410,2.318
1709612000.108513,1.355
1709612000.108563,4.321
1709612000.150514,3.324
1709612000.150622,4.322
1709612000.150674,5.279
1709612000.150723,6.216
1709612000.150772,3.325
1709612000.278413,2.319
1709612000.411807,7.183
1709612000.411900,6.217
1709612000.411951,6.218
1709612000.412001,3.326
1709612000.412050,2.320
1709612000.412099,7.184
1709612000.412150,2.321
1709612000.412198,5.280
1709612000.412246,6.219
1709612000.412297,4.323
1709612000.412354,1.356
1709612000.412403,2.322
1709612000.412452,3.327
1709612000.412500,8.191
1709612000.412550,8.192
1709612000.412599,8.193
1709612000.461356,3.328
1709612000.632375,1.357
1709612000.632487,5.281
1709612000.632555,2.323
1709612000.632628,7.185
1709612000.632681,8.194
1709612000.716439,5.282
1709612000.716520,8.195
1709612000.716574,6.220
1709612000.864350,2.324
1709612000.864456,1.358
1709612001.032365,8.196
1709612001.032504,1.359
1709612001.032565,8.197
1709612001.032616,4.324
1709612001.074589,4.325
1709612001.074696,8.198
1709612001.074753,8.199
1709612001.158436,3.329
1709612001.158545,1.360
1709612001.158595,7.186
1709612001.158643,4.326
1709612001.158698,4.327
1709612001.158746,3.330
1709612001.158795,2.325
1709612001.158845,4.328
1709612001.158893,5.283
1709612001.391423,3.331
1709612001.391525,1.361
1709612001.391578,2.326
1709612001.391627,4.329
1709612001.391678,5.284
1709612001.391727,3.332
1709612001.391777,6.221
1709612001.391826,2.327
1709612001.657454,2.328
1709612001.657580,4.330
1709612001.657633,5.285
1709612001.657683,5.286
1709612001.657735,5.287
1709612001.657791,3.333
1709612001.707412,7.187
1709612001.707510,3.334
1709612001.707562,5.288
1709612001.812468,6.222
1709612001.812579,3.335
1709612001.812630,6.223
1709612001.915352,7.188
1709612001.915451,1.362
1709612001.915503,7.189
1709612002.078362,5.289
1709612002.078476,2.329
1709612002.078527,6.224
1709612002.078579,4.331
1709612002.078627,6.225
1709612002.078680,4.332
1709612002.078727,1.363
1709612002.078776,7.190
1709612002.078825,4.333
1709612002.078873,7.191
1709612002.078922,2.330
1709612002.183424,3.336
1709612002.283435,5.290
1709612002.283540,7.192
1709612002.283591,5.291
1709612002.283642,5.292
1709612002.398534,7.193
1709612002.398633,5.293
1709612002.398684,3.337
1709612002.398733,7.194
1709612002.398783,5.294
1709612002.398832,1.364
1709612002.398880,5.295
1709612002.398930,3.338
1709612002.483411,6.226
1709612002.483516,6.227
1709612002.483567,7.195
1709612002.630348,4.334
1709612002.630447,8.200
1709612002.630503,4.335
1709612002.630554,2.331
1709612002.630603,8.201
1709612002.630653,7.196
1709612002.630701,4.336
1709612002.672437,7.197
1709612002.672531,5.296
1709612002.672583,3.339
1709612002.672632,3.340
1709612002.672682,5.297
1709612002.672733,6.228
1709612002.799506,7.198
1709612002.799623,2.332
1709612002.799679,2.333
1709612002.799730,4.337
1709612002.841478,3.341
1709612002.841576,8.202
1709612003.129476,6.229
1709612003.129569,2.334
1709612003.129620,6.230
1709612003.129670,7.199
1709612003.129720,4.338
1709612003.129771,7.200
1709612003.129819,1.365
1709612003.129870,3.342
1709612003.225393,4.339
1709612003.225489,5.298
1709612003.330364,1.366
1709612003.330468,3.343
1709612003.330520,7.201
1709612003.424351,7.202
1709612003.424449,4.340
1709612003.424505,6.231
1709612003.424555,7.203
1709612003.663352,2.335
1709612003.663456,4.341
1709612003.663508,2.336
1709612003.663558,7.204
1709612003.663609,2.337
1709612003.663658,8.203
1709612003.923392,8.204
1709612003.923492,1.367
1709612003.967343,1.368
1709612003.967418,7.205
1709612004.009354,1.369
1709612004.009439,5.299
1709612004.009496,6.232
1709612004.009546,4.342
1709612004.009595,5.300
1709612004.009643,1.370
1709612004.177664,1.371
1709612004.177786,6.233
1709612004.177842,1.372
1709612004.177892,5.301
1709612004.177943,2.338
1709612004.261422,8.205
1709612004.261513,2.339
1709612004.303373,6.234
1709612004.303465,2.340
1709612004.303521,6.235
1709612004.391472,3.344
1709612004.391569,6.236
1709612004.391626,3.345
1709612004.539481,6.237
1709612004.539593,5.302
1709612004.692383,1.373
1709612004.692485,4.343
1709612004.692535,6.238
1709612004.819381,6.239
1709612004.819489,3.346
1709612004.819546,7.206
1709612004.819615,7.207
1709612004.819666,2.341
1709612004.819721,6.240
1709612004.819774,7.208
1709612004.819823,4.344
1709612004.819874,5.303
1709612004.819924,6.241
1709612004.819976,8.206
1709612004.820025,1.374
1709612004.910533,6.242
1709612004.910608,3.347
1709612004.994448,1.375
1709612005.162348,5.304
1709612005.162447,6.243
1709612005.162498,5.305
1709612005.162547,8.207
1709612005.162598,8.208
1709612005.162646,8.209
1709612005.288392,1.376
1709612005.414413,2.342
1709612005.499459,4.345
1709612005.583353,8.210
1709612005.583450,3.348
1709612005.625352,3.349
1709612005.678371,3.350
1709612005.782523,6.244
1709612005.782634,2.343
1709612005.782685,3.351
1709612005.858482,5.306
1709612005.858562,2.344
1709612005.858614,5.307
1709612005.942350,1.377
1709612005.984345,1.378
1709612005.984430,4.346
1709612006.026496,2.345
1709612006.110364,4.347
1709612006.110467,8.211
1709612006.110519,4.348
1709612006.110569,8.212
1709612006.201647,6.245
1709612006.418353,6.246
1709612006.418458,1.379
1709612006.418515,7.209
1709612006.418566,2.346
1709612006.418616,6.247
1709612006.418665,3.352
1709612006.418714,3.353
1709612006.418763,6.248
1709612006.418812,5.308
1709612006.418861,7.210
1709612006.418910,3.354
1709612006.418958,8.213
1709612006.419008,1.380
1709612006.419056,1.381
1709612006.419105,8.214
1709612006.419156,4.349
1709612006.419204,7.211
1709612006.419264,6.249
1709612006.503470,8.215
1709612006.503576,2.347
1709612006.503628,5.309
1709612006.503681,4.350
1709612006.503731,2.348
1709612006.587348,8.216
1709612006.629421,6.250
1709612006.629521,2.349
1709612006.629577,3.355
1709612006.718399,6.251
1709612006.718484,1.382
1709612006.718536,1.383
1709612006.718597,7.212
1709612006.718646,2.350
1709612006.718708,2.351
1709612006.872456,4.351
1709612006.966387,4.352
1709612007.122432,2.352
1709612007.243352,2.353
1709612007.243451,3.356
1709612007.243502,4.353
1709612007.343350,3.357
1709612007.343446,7.213
1709612007.343497,4.354
1709612007.343549,5.310
1709612007.343598,6.252
1709612007.343648,4.355
1709612007.343698,5.311
1709612007.442352,3.358
1709612007.442450,4.356
1709612007.442500,5.312
1709612007.442549,7.214
1709612007.442599,3.359
1709612007.442647,5.313
1709612007.495430,5.314
1709612007.495519,4.357
1709612007.495578,7.215
1709612007.495631,5.315
1709612007.595404,3.360
1709612007.743405,6.253
1709612007.743502,2.354
1709612007.743556,7.216
1709612007.743607,3.361
1709612007.743657,1.384
1709612007.743710,1.385
1709612007.743760,4.358
1709612007.743809,5.316
1709612007.971351,7.217
1709612007.971453,2.355
1709612008.055355,4.359
1709612008.055452,6.254
1709612008.055503,2.356
1709612008.055554,7.218
1709612008.055605,1.386
1709612008.055657,6.255
1709612008.055706,1.387
1709612008.097356,1.388
1709612008.223447,6.256
1709612008.223534,5.317
1709612008.265455,5.318
1709612008.265531,4.360
1709612008.265583,1.389
1709612008.265632,7.219
1709612008.265679,8.217
1709612008.265729,7.220
1709612008.265777,6.257
1709612008.265826,8.218
1709612008.441396,2.357
1709612008.525376,3.362
1709612008.525492,1.390
1709612008.525542,5.319
1709612008.525591,3.363
1709612008.525640,8.219
1709612008.525691,2.358
1709612008.525740,6.258
1709612008.525789,7.221
1709612008.525838,1.391
1709612008.525887,3.364
1709612008.525934,6.259
1709612008.525983,5.320
1709612008.526031,8.220
1709612008.526078,5.321
1709612008.526127,3.365
1709612008.526175,8.221
1709612008.526223,7.222
1709612008.526272,8.222
1709612008.651446,8.223
1709612008.651551,1.392
1709612008.735446,6.260
1709612008.735555,1.393
1709612008.735606,1.394
1709612008.735661,6.261
1709612008.735714,1.395
1709612008.824434,6.262
1709612008.824541,7.223
1709612008.908480,6.263
1709612008.908581,3.366
1709612009.034421,4.361
1709612009.034496,8.224
1709612009.034547,6.264
1709612009.034597,3.367
1709612009.034645,8.225
1709612009.139368,7.224
1709612009.139479,2.359
1709612009.139534,1.396
1709612009.139584,4.362
1709612009.223347,3.368
1709612009.223444,5.322
1709612009.223496,7.225
1709612009.223546,6.265
1709612009.223602,3.369
1709612009.223657,3.370
1709612009.223706,4.363
1709612009.223758,3.371
1709612009.306520,8.226
1709612009.433718,4.364
1709612009.433843,8.227
1709612009.433893,5.323
1709612009.433944,3.372
1709612009.559451,8.228
1709612009.643415,5.324
1709612009.643503,2.360
1709612009.643553,5.325
1709612009.748398,1.397
1709612009.748503,5.326
1709612009.791356,1.398
1709612009.791455,8.229
1709612009.791505,3.373
1709612009.791556,1.399
1709612009.791610,5.327
1709612009.791661,5.328
1709612009.791712,1.400
1709612009.791761,4.365
1709612009.791811,2.361
1709612009.791861,6.266
1709612009.830352,7.226
1709612009.914400,8.230
1709612009.956465,7.227
1709612009.956553,6.267
1709612009.956605,8.231
1709612009.956655,2.362
1709612009.956706,4.366
1709612010.124496,6.268
1709612010.124585,5.329
1709612010.124636,6.269
1709612010.215419,1.401
1709612010.215517,5.330
1709612010.215569,8.232
1709612010.215621,5.331
1709612010.341440,8.233
1709612010.341541,6.270
1709612010.489593,2.363
1709612010.489696,5.332
1709612010.489748,3.374
1709612010.489796,7.228
1709612010.489861,7.229
1709612010.489909,6.271
1709612010.489959,7.230
1709612010.490009,8.234
1709612010.490057,7.231
1709612010.490107,4.367
1709612010.531509,3.375
1709612010.531613,2.364
1709612010.657401,5.333
1709612010.741425,3.376
1709612010.741527,5.334
1709612010.826371,3.377
1709612010.826489,2.365
1709612010.826561,8.235
1709612010.932409,3.378
1709612010.932515,2.366
1709612010.932567,3.379
1709612010.932617,3.380
1709612010.932667,7.232
1709612010.932717,1.402
1709612010.932765,2.367
1709612010.932815,7.233
1709612010.932864,1.403
1709612010.932912,6.272
1709612010.932961,7.234
1709612010.933010,6.273
1709612010.933059,5.335
1709612011.121348,5.336
1709612011.121445,3.381
1709612011.121496,7.235
1709612011.121561,4.368
1709612011.121614,4.369
1709612011.121664,2.368
1709612011.121714,6.274
1709612011.121765,8.236
1709612011.205371,5.337
1709612011.205468,3.382
1709612011.205522,1.404
1709612011.289358,2.369
1709612011.289479,8.237
1709612011.289533,8.238
1709612011.373432,1.405
1709612011.373541,4.370
1709612011.373593,1.406
1709612011.373642,1.407
1709612011.458460,2.370
1709612011.458570,5.338
1709612011.458620,2.371
1709612011.458669,5.339
1709612011.570545,6.275
1709612011.661363,7.236
1709612011.661463,6.276
1709612011.661516,2.372
1709612011.661573,7.237
1709612011.661623,1.408
1709612011.795675,3.383
1709612011.795774,4.371
1709612011.795824,3.384
1709612011.795877,7.238
1709612011.795928,1.409
1709612011.795980,6.277
1709612011.796032,6.278
1709612011.796083,1.410
1709612011.796132,6.279
1709612011.796185,7.239
1709612011.796235,3.385
1709612011.796286,3.386
1709612011.900356,8.239
1709612011.984487,8.240
1709612011.984575,4.372
1709612011.984642,4.373
1709612012.131377,4.374
1709612012.131489,5.340
1709612012.131541,6.280
1709612012.131592,5.341
1709612012.131641,6.281
1709612012.131690,8.241
1709612012.131738,8.242
1709612012.131787,5.342
1709612012.131836,3.387
1709612012.131884,3.388
1709612012.131932,2.373
1709612012.131981,6.282
1709612012.132028,5.343
1709612012.132077,5.344
1709612012.132124,5.345
1709612012.132172,6.283
1709612012.132221,4.375
1709612012.320729,4.376
1709612012.320832,8.243
1709612012.320887,7.240
1709612012.320942,5.346
1709612012.320991,3.389
1709612012.404370,6.284
1709612012.404480,6.285
1709612012.404531,6.286
1709612012.404580,5.347
1709612012.404630,4.377
1709612012.404685,2.374
1709612012.447563,5.348
1709612012.447680,8.244
1709612012.447733,8.245
1709612012.531443,1.411
1709612012.531562,6.287
1709612012.531616,1.412
1709612012.531665,3.390
1709612012.720366,7.241
1709612012.720472,4.378
1709612012.720530,5.349
1709612012.720580,5.350
1709612012.839479,6.288
1709612012.839568,7.242
1709612012.939437,4.379
1709612012.939526,6.289
1709612012.939590,3.391
1709612012.939641,5.351
1709612012.939690,2.375
1709612012.939739,3.392
1709612012.939788,6.290
1709612012.939836,6.291
1709612012.939885,1.413
1709612012.939940,4.380
1709612013.141359,7.243
1709612013.141459,7.244
1709612013.141510,3.393
1709612013.141564,6.292
1709612013.141616,7.245
1709612013.348363,4.381
1709612013.348470,2.376
1709612013.348528,1.414
1709612013.348579,2.377
1709612013.348627,7.246
1709612013.348677,4.382
1709612013.348726,4.383
1709612013.348775,3.394
1709612013.433646,3.395
1709612013.517605,8.246
1709612013.601480,3.396
1709612013.601578,1.415
1709612013.601631,6.293
1709612013.601689,2.378
1709612013.601738,6.294
1709612013.794669,1.416
1709612013.794774,5.352
1709612013.794828,6.295
1709612013.794877,5.353
1709612013.794926,7.247
1709612013.794975,5.354
1709612013.888545,8.247
1709612013.888649,3.397
1709612013.888701,8.248
1709612013.888751,4.384
1709612013.888799,7.248
1709612013.888849,5.355
1709612013.972443,1.417
1709612013.972540,6.296
1709612013.972594,2.379
1709612013.972647,8.249
1709612013.972697,7.249
1709612013.972749,5.356
1709612014.098440,1.418
1709612014.098551,3.398
1709612014.098604,5.357
1709612014.200388,7.250
1709612014.200486,3.399
1709612014.200538,5.358
1709612014.309474,1.419
1709612014.351382,5.359
1709612014.351479,5.360
1709612014.436860,6.297
1709612014.436957,7.251
1709612014.520477,3.400
1709612014.520577,5.361
1709612014.520629,6.298
1709612014.520680,8.250
1709612014.520730,1.420
1709612014.520785,1.421
1709612014.520834,5.362
1709612014.520885,8.251
1709612014.604346,1.422
1709612014.688438,4.385
1709612014.730526,7.252
1709612014.730635,1.423
1709612014.730687,7.253
1709612014.730736,8.252
1709612014.730785,4.386
1709612014.730835,3.401
1709612014.730884,7.254
1709612014.826422,1.424
1709612014.973371,6.299
1709612014.973467,7.255
1709612014.973521,7.256
1709612014.973576,7.257
1709612015.088422,5.363
1709612015.088514,7.258
1709612015.088565,7.259
1709612015.088619,5.364
1709612015.088686,2.380
1709612015.088739,5.365
1709612015.088789,4.387
1709612015.088860,3.402
1709612015.235384,7.260
1709612015.277748,7.261
1709612015.277851,7.262
1709612015.277903,2.381
1709612015.277956,5.366
1709612015.278006,1.425
1709612015.278055,8.253
1709612015.453383,1.426
1709612015.453493,4.388
1709612015.453548,3.403
1709612015.453603,1.427
1709612015.453654,8.254
1709612015.537560,8.255
1709612015.537671,1.428
1709612015.537724,5.367
1709612015.537772,2.382
1709612015.537826,1.429
1709612015.537875,6.300
1709612015.747352,8.256
1709612015.747449,1.430
1709612015.747502,2.383
1709612015.747552,2.384
1709612015.747601,3.404
1709612015.832383,6.301
1709612015.832485,3.405
1709612015.916407,8.257
1709612015.916515,7.263
1709612015.916566,4.389
1709612015.916616,8.258
1709612015.916666,4.390
1709612015.916714,5.368
1709612015.958399,7.264
1709612015.958496,8.259
1709612016.084356,3.406
1709612016.084453,2.385
1709612016.185445,1.431
1709612016.299448,2.386
1709612016.299540,3.407
1709612016.299592,3.408
1709612016.299641,6.302
1709612016.299692,6.303
1709612016.475451,6.304
1709612016.475562,5.369
1709612016.475620,5.370
1709612016.475676,6.305
1709612016.475727,4.391
1709612016.475777,6.306
1709612016.475826,4.392
1709612016.580351,4.393
1709612016.580452,4.394
1709612016.664444,4.395
1709612016.664562,8.260
1709612016.664613,8.261
1709612016.664663,8.262
1709612016.750371,6.307
1709612016.750462,2.387
1709612016.860434,5.371
1709612016.860532,2.388
1709612016.860583,4.396
1709612016.954358,6.308
1709612016.954463,6.309
1709612016.954518,3.409
1709612016.954568,3.410
1709612016.954616,4.397
1709612016.954666,7.265
1709612016.954713,1.432
1709612016.954761,3.411
1709612016.954810,4.398
1709612017.068424,5.372
1709612017.068521,1.433
1709612017.068574,3.412
1709612017.068624,4.399
1709612017.068674,4.400
1709612017.285351,3.413
1709612017.285460,5.373
1709612017.285512,2.389
1709612017.285561,1.434
1709612017.440464,2.390
1709612017.440571,8.263
1709612017.440625,3.414
1709612017.440680,2.391
1709612017.440729,8.264
1709612017.440780,8.265
1709612017.440832,1.435
1709612017.545388,4.401
1709612017.545494,6.310
1709612017.545547,4.402
1709612017.545601,1.436
1709612017.587746,4.403
1709612017.587858,7.266
1709612017.587914,1.437
1709612017.587965,7.267
1709612017.588016,5.374
1709612017.588069,1.438
1709612017.588120,3.415
1709612017.588170,3.416
1709612017.588218,8.266
1709612017.588268,8.267
1709612017.713352,2.392
1709612017.713461,6.311
1709612017.713513,4.404
1709612017.713565,6.312
1709612017.807396,7.268
1709612017.807491,5.375
1709612017.915349,2.393
1709612017.915458,3.417
1709612017.915511,2.394
1709612017.915562,3.418
1709612017.915611,2.395
1709612017.915660,5.376
1709612017.915709,1.439
1709612017.915758,7.269
1709612017.915812,1.440
1709612017.915861,6.313
1709612018.013461,6.314
1709612018.013567,6.315
1709612018.013620,6.316
1709612018.013670,5.377
1709612018.219394,2.396
1709612018.219490,2.397
1709612018.219560,1.441
1709612018.219628,5.378
1709612018.219678,2.398
1709612018.321449,1.442
1709612018.321549,7.270
1709612018.321600,1.443
1709612018.321652,3.419
1709612018.405351,5.379
1709612018.405452,5.380
1709612018.405514,4.405
1709612018.405565,8.268
1709612018.490514,3.420
1709612018.490592,8.269
1709612018.532710,6.317
1709612018.616368,3.421
1709612018.707569,5.381
1709612018.707680,6.318
1709612018.707734,7.271
1709612018.707784,4.406
1709612018.707832,8.270
1709612018.707883,4.407
1709612018.707931,3.422
1709612018.981387,1.444
1709612018.981490,2.399
1709612018.981540,8.271
1709612018.981590,4.408
1709612018.981640,1.445
1709612018.981689,2.400
1709612019.065351,2.401
1709612019.174359,7.272
1709612019.174465,3.423
1709612019.174515,7.273
1709612019.174565,7.274
1709612019.225366,2.402
1709612019.225469,2.403
1709612019.225519,1.446
1709612019.225582,2.404
1709612019.225632,3.424
1709612019.325413,7.275
1709612019.325511,3.425
1709612019.378467,1.447
1709612019.378567,2.405
1709612019.500355,2.406
1709612019.625384,6.319
1709612019.625459,1.448
1709612019.625511,6.320
1709612019.625563,8.272
1709612019.625614,8.273
1709612019.667486,1.449
1709612019.857386,7.276
1709612019.857503,5.382
1709612019.857572,7.277
1709612020.025358,5.383
1709612020.025465,3.426
1709612020.025516,5.384
1709612020.025570,5.385
1709612020.025620,1.450
1709612020.025669,8.274
1709612020.025719,4.409
1709612020.109478,4.410
1709612020.151350,7.278
1709612020.151451,4.411
1709612020.151501,7.279
1709612020.151552,3.427
1709612020.151603,4.412
1709612020.151651,8.275
1709612020.151701,4.413
1709612020.151749,3.428
1709612020.151803,5.386
1709612020.498349,7.280
1709612020.498452,3.429
1709612020.498504,3.430
1709612020.498554,7.281
1709612020.498603,6.321
1709612020.498657,7.282
1709612020.498707,7.283
1709612020.498756,8.276
1709612020.498805,1.451
1709612020.582551,1.452
1709612020.582642,3.431
1709612020.582693,8.277
1709612020.582743,2.407
1709612020.582793,2.408
1709612020.582843,1.453
1709612020.582893,1.454
1709612020.582961,1.455
1709612020.604768,4.414
1709612020.604831,4.415
1709612020.604887,5.387
1709612020.604936,6.322
1709612020.840097,3.432
1709612020.840210,5.388
1709612020.840263,5.389
1709612020.840315,2.409
1709612020.840378,8.278
1709612020.840432,2.410
1709612020.972377,1.456
1709612020.972475,8.279
1709612020.972527,8.280
1709612021.077443,4.416
1709612021.077551,8.281
1709612021.140517,5.390
1709612021.140595,3.433
1709612021.140646,5.391
1709612021.140696,1.457
1709612021.140750,8.282
1709612021.140799,4.417
1709612021.140848,8.283
1709612021.140897,7.284
1709612021.140946,2.411
1709612021.140996,8.284
1709612021.141045,7.285
1709612021.141095,8.285
1709612021.182353,4.418
1709612021.266724,3.434
1709612021.435838,6.323
1709612021.435948,6.324
1709612021.435998,4.419
1709612021.436048,8.286
1709612021.436097,8.287
1709612021.436145,1.458
1709612021.436196,5.392
1709612021.519423,3.435
1709612021.561453,8.288
1709612021.561555,3.436
1709612021.561608,6.325
1709612021.561659,6.326
1709612021.561709,7.286
1709612021.561759,4.420
1709612021.561808,7.287
1709612021.561857,5.393
1709612021.737354,6.327
1709612021.737456,7.288
1709612021.844382,6.328
1709612021.844478,7.289
1709612021.949378,4.421
1709612021.949447,5.394
1709612021.949498,5.395
1709612021.949549,4.422
1709612021.949599,2.412
1709612021.949648,4.423
1709612021.949698,7.290
1709612021.949748,3.437
1709612021.949803,4.424
1709612022.054348,1.459
1709612022.054443,1.460
1709612022.054497,4.425
1709612022.138383,3.438
1709612022.180363,7.291
1709612022.180459,1.461
1709612022.180516,6.329
1709612022.180566,7.292
1709612022.180617,5.396
1709612022.180667,1.462
1709612022.180716,8.289
1709612022.390353,6.330
1709612022.390457,3.439
1709612022.390509,2.413
1709612022.493367,1.463
1709612022.493472,3.440
1709612022.648446,1.464
1709612022.648553,3.441
1709612022.648608,4.426
1709612022.648659,5.397
1709612022.648708,1.465
1709612022.869482,3.442
1709612022.869575,3.443
1709612022.869641,6.331
1709612022.869692,7.293
1709612022.995516,3.444
1709612022.995596,4.427
1709612022.995648,4.428
1709612022.995697,8.290
1709612022.995747,8.291
1709612022.995802,7.294
1709612022.995851,2.414
1709612023.163362,7.295
1709612023.247392,6.332
1709612023.247499,7.296
1709612023.247552,5.398
1709612023.247607,6.333
1709612023.247660,5.399
1709612023.247710,2.415
1709612023.247760,8.292
1709612023.247813,5.400
1709612023.289430,8.293
1709612023.289533,4.429
1709612023.289585,2.416
1709612023.289641,1.466
1709612023.289691,7.297
1709612023.332441,5.401
1709612023.381384,5.402
1709612023.466375,4.430
1709612023.466475,6.334
1709612023.550514,1.467
1709612023.592471,6.335
1709612023.592567,8.294
1709612023.592623,8.295
1709612023.676446,2.417
1709612023.676555,2.418
1709612023.676605,7.298
1709612023.676656,1.468
1709612023.676705,1.469
1709612023.676754,7.299
1709612023.676803,3.445
1709612023.866432,4.431
1709612023.866533,4.432
1709612023.866588,2.419
1709612023.908563,8.296
1709612023.908669,1.470
1709612023.908720,1.471
1709612024.097469,5.403
1709612024.097546,4.433
1709612024.097597,7.300
1709612024.097646,5.404
1709612024.097695,6.336
1709612024.097743,5.405
1709612024.097792,2.420
1709612024.097844,4.434
1709612024.097893,7.301
1709612024.097942,3.446
1709612024.139549,3.447
1709612024.139636,5.406
1709612024.139695,4.435
1709612024.139746,2.421
1709612024.139797,1.472
1709612024.139850,6.337
1709612024.230586,8.297
1709612024.230696,6.338
1709612024.230748,6.339
1709612024.230798,2.422
1709612024.230847,6.340
1709612024.230896,7.302
1709612024.230946,6.341
1709612024.231002,2.423
1709612024.231052,1.473
1709612024.335393,5.407
1709612024.335510,8.298
1709612024.335562,8.299
1709612024.419360,3.448
1709612024.419465,7.303
1709612024.419518,4.436
1709612024.419568,4.437
1709612024.419616,6.342
1709612024.419667,1.474
1709612024.419719,8.300
1709612024.504590,8.301
1709612024.504681,7.304
1709612024.504737,4.438
1709612024.504788,7.305
1709612024.504837,1.475
1709612024.504892,5.408
1709612024.599427,4.439
1709612024.641413,7.306
1709612024.641515,5.409
1709612024.725669,6.343
1709612024.725778,6.344
1709612024.725829,7.307
1709612024.725879,8.302
1709612024.852389,4.440
1709612025.062346,7.308
1709612025.062444,8.303
1709612025.146390,7.309
1709612025.146459,1.476
1709612025.146513,6.345
1709612025.146564,6.346
1709612025.146614,8.304
1709612025.146663,7.310
1709612025.146713,1.477
1709612025.237479,7.311
1709612025.237595,1.478
1709612025.237645,1.479
1709612025.237695,5.410
1709612025.363512,2.424
1709612025.602548,4.441
1709612025.602666,6.347
1709612025.602724,7.312
1709612025.602773,8.305
1709612025.602822,4.442
1709612025.602871,5.411
1709612025.602919,5.412
1709612025.602967,7.313
1709612025.603015,1.480
1709612025.603068,4.443
1709612025.603117,6.348
1709612025.603166,3.449
1709612025.603214,6.349
1709612025.603263,2.425
1709612025.603310,7.314
1709612025.603366,8.306
1709612025.686391,8.307
1709612025.686496,3.450
1709612025.686546,4.444
1709612025.686600,4.445
1709612025.686651,4.446
1709612025.686700,8.308
1709612025.686750,3.451
1709612025.813358,2.426
1709612025.813463,2.427
1709612025.813515,3.452
1709612025.813565,2.428
1709612025.813614,6.350
1709612025.813668,2.429
1709612025.984375,1.481
1709612025.984479,3.453
1709612026.068437,3.454
1709612026.068534,3.455
1709612026.068585,2.430
1709612026.068635,3.456
1709612026.068684,8.309
1709612026.068732,1.482
1709612026.333536,5.413
1709612026.333657,5.414
1709612026.333711,1.483
1709612026.333768,4.447
1709612026.460438,7.315
1709612026.460540,2.431
1709612026.460593,3.457
1709612026.460644,2.432
1709612026.460695,7.316
1709612026.460745,8.310
1709612026.460798,3.458
1709612026.460849,7.317
1709612026.544533,2.433
1709612026.544651,5.415
1709612026.544722,8.311
1709612026.544774,5.416
1709612026.544825,6.351
1709612026.544874,8.312
1709612026.593430,4.448
1709612026.677363,5.417
1709612026.871356,6.352
1709612026.871462,7.318
1709612026.871514,1.484
1709612026.871565,1.485
1709612026.871617,8.313
1709612026.871666,6.353
1709612026.871714,2.434
1709612026.871768,5.418
1709612026.871818,2.435
1709612026.913397,3.459
1709612027.009371,2.436
1709612027.009468,8.314
1709612027.009521,7.319
1709612027.009572,2.437
1709612027.009626,2.438
1709612027.009676,6.354
1709612027.009727,5.419
1709612027.177358,5.420
1709612027.177457,1.486
1709612027.177516,2.439
1709612027.177568,3.460
1709612027.177617,4.449
1709612027.177669,7.320
1709612027.177719,4.450
1709612027.177768,7.321
1709612027.177822,6.355
1709612027.177871,5.421
1709612027.177928,2.440
1709612027.337359,7.322
1709612027.337461,3.461
1709612027.337517,2.441
1709612027.400456,1.487
1709612027.400525,1.488
1709612027.400593,1.489
1709612027.400646,5.422
1709612027.400710,1.490
1709612027.400762,2.442
1709612027.400828,4.451
1709612027.400878,2.443
1709612027.485397,8.315
1709612027.485525,3.462
1709612027.485589,3.463
1709612027.576647,7.323
1709612027.576749,2.444
1709612027.576801,4.452
1709612027.808385,8.316
1709612027.808491,6.356
1709612027.808550,3.464
1709612027.808623,1.491
1709612027.808672,4.453
1709612027.808725,8.317
1709612027.808775,1.492
1709612027.808845,6.357
1709612027.892642,3.465
1709612027.892747,2.445
1709612027.892799,8.318
1709612027.892852,7.324
1709612027.976568,8.319
1709612027.976667,7.325
1709612027.976718,6.358
1709612027.976777,7.326
1709612027.976827,2.446
1709612027.976875,1.493
1709612027.976925,8.320
1709612027.976974,5.423
1709612028.060358,7.327
1709612028.060490,5.424
1709612028.060542,1.494
1709612028.144490,2.447
1709612028.144586,3.466
1709612028.144653,2.448
1709612028.144703,8.321
1709612028.273509,7.328
1709612028.329389,7.329
1709612028.434561,1.495
1709612028.434662,2.449
1709612028.434713,7.330
1709612028.434762,4.454
1709612028.434811,3.467
1709612028.434859,2.450
1709612028.434907,7.331
1709612028.434955,3.468
1709612028.616350,3.469
1709612028.616451,2.451
1709612028.658430,1.496
1709612028.742480,8.322
1709612028.785445,4.455
1709612028.785540,6.359
1709612028.785590,6.360
1709612028.785641,6.361
1709612028.911450,1.497
1709612029.005355,1.498
1709612029.005456,6.362
1709612029.299367,2.452
1709612029.299469,7.332
1709612029.299522,6.363
1709612029.299571,2.453
1709612029.299622,1.499
1709612029.299672,7.333
1709612029.299721,3.470
1709612029.299771,8.323
1709612029.299819,8.324
1709612029.299869,6.364
1709612029.383358,5.425
1709612029.383467,2.454
1709612029.383519,1.500
1709612029.383568,3.471
1709612029.383617,8.325
1709612029.468524,5.426
1709612029.468620,3.472
1709612029.643728,7.334
1709612029.643805,6.365
1709612029.770713,3.473
1709612029.770812,8.326
1709612029.770864,7.335
1709612029.770920,8.327
1709612029.770969,8.328
1709612029.851364,5.427
1709612029.851463,5.428
1709612029.977454,8.329
1709612029.977556,7.336
1709612030.061402,7.337
1709612030.145462,7.338
1709612030.229405,3.474
1709612030.313417,8.330
1709612030.313508,2.455
1709612030.313572,3.475
1709612030.313622,4.456
1709612030.313673,7.339
1709612030.313722,4.457
1709612030.313773,4.458
1709612030.313833,5.429
1709612030.313885,6.366
1709612030.313934,7.340
1709612030.355601,8.331
1709612030.355678,5.430
1709612030.524366,6.367
1709612030.741483,6.368
1709612030.741586,4.459
1709612030.741637,5.431
1709612030.741687,7.341
1709612030.868387,7.342
1709612030.868465,8.332
1709612030.868516,5.432
1709612030.868571,5.433
1709612030.868623,3.476
1709612030.868674,8.333
1709612030.868723,2.456
1709612030.910498,3.477
1709612030.910605,2.457
1709612030.910661,5.434
1709612030.910724,6.369
1709612030.910775,7.343
1709612030.910826,7.344
1709612030.910875,7.345
1709612030.910927,2.458
1709612030.910977,8.334
1709612030.911026,2.459
1709612030.911088,8.335
1709612030.911139,2.460
1709612030.911187,6.370
1709612031.036389,6.371
1709612031.036498,7.346
1709612031.036582,4.460
1709612031.162511,7.347
1709612031.162612,2.461
1709612031.162669,8.336
1709612031.288359,5.435
1709612031.288467,6.372
1709612031.288522,2.462
1709612031.372684,4.461
1709612031.457444,6.373
1709612031.457544,6.374
1709612031.457595,3.478
1709612031.457645,2.463
1709612031.457695,4.462
1709612031.457745,8.337
1709612031.457794,6.375
1709612031.457844,6.376
1709612031.457895,2.464
1709612031.457948,5.436
1709612031.457999,4.463
1709612031.458048,8.338
1709612031.458097,4.464
1709612031.458148,8.339
1709612031.458197,2.465
1709612031.458246,4.465
1709612031.667563,2.466
1709612031.667677,7.348
1709612031.667728,7.349
1709612031.709355,8.340
1709612031.850354,3.479
1709612031.850453,4.466
1709612032.051362,3.480
1709612032.051473,7.350
1709612032.051527,3.481
1709612032.051578,6.377
1709612032.135384,6.378
1709612032.135490,6.379
1709612032.135554,3.482
1709612032.135605,4.467
1709612032.135655,7.351
1709612032.135705,4.468
1709612032.219501,8.341
1709612032.303370,3.483
1709612032.303470,7.352
1709612032.303528,8.342
1709612032.387352,5.437
1709612032.387452,4.469
1709612032.387503,5.438
1709612032.387553,6.380
1709612032.387602,5.439
1709612032.614445,6.381
1709612032.614561,7.353
1709612032.614615,4.470
1709612032.733499,6.382
1709612032.818381,6.383
1709612032.818493,7.354
1709612032.944344,4.471
1709612032.944442,7.355
1709612032.944495,8.343
1709612032.944545,4.472
1709612032.944593,7.356
1709612033.171429,7.357
1709612033.171542,7.358
1709612033.428395,5.440
1709612033.428507,5.441
1709612033.428565,4.473
1709612033.639357,7.359
1709612033.639462,5.442
1709612033.639513,4.474
1709612033.639575,4.475
1709612033.639625,7.360
1709612033.639674,8.344
1709612033.639723,4.476
1709612033.639771,4.477
1709612033.794359,4.478
1709612033.837402,7.361
1709612033.921390,4.479
1709612033.921496,8.345
1709612034.206513,6.384
1709612034.304505,6.385
1709612034.353361,4.480
1709612034.438404,5.443
1709612034.438507,7.362
1709612034.522362,8.346
1709612034.522473,8.347
1709612034.606725,5.444
1709612034.606822,7.363
1709612034.606874,5.445
1709612034.606923,6.386
1709612034.606973,5.446
1709612034.775507,8.348
1709612034.929421,8.349
1709612034.929490,6.387
1709612035.013376,7.364
1709612035.013482,4.481
1709612035.062573,7.365
1709612035.062665,5.447
1709612035.062715,7.366
1709612035.062765,5.448
1709612035.062814,8.350
1709612035.188412,4.482
1709612035.237481,8.351
1709612035.237593,7.367
1709612035.363441,8.352
1709612035.455481,6.388
1709612035.455594,6.389
1709612035.455647,8.353
1709612035.455697,8.354
1709612035.539389,5.449
1709612035.539491,8.355
1709612035.665366,4.483
1709612035.665478,4.484
1709612035.665529,8.356
1709612035.749361,4.485
1709612035.749475,7.368
1709612035.749529,4.486
1709612035.749579,7.369
1709612035.749628,7.370
1709612035.813406,6.390
1709612035.939532,8.357
1709612036.128356,6.391
1709612036.128464,7.371
1709612036.226465,7.372
1709612036.226556,8.358
1709612036.226607,7.373
1709612036.226673,5.450
1709612036.226722,7.374
1709612036.341492,5.451
1709612036.341599,6.392
1709612036.404461,5.452
1709612036.404570,5.453
1709612036.404620,5.454
1709612036.404675,5.455
1709612036.404726,7.375
1709612036.489493,4.487
1709612036.573354,6.393
1709612036.657394,7.376
1709612036.752397,8.359
1709612036.752497,7.377
1709612036.752549,5.456
1709612036.752606,7.378
1709612036.903371,6.394
1709612036.903477,4.488
1709612036.903527,7.379
1709612036.903578,7.380
1709612036.903627,6.395
1709612036.903676,5.457
1709612036.903725,6.396
1709612037.149439,4.489
1709612037.233521,6.397
1709612037.233626,7.381
1709612037.233679,4.490
1709612037.233728,7.382
1709612037.233778,4.491
1709612037.324550,7.383
1709612037.324632,8.360
1709612037.451489,4.492
1709612037.710465,5.458
1709612037.710562,6.398
1709612037.710614,4.493
1709612037.710665,8.361
1709612037.710714,7.384
1709612037.710764,8.362
1709612037.710814,5.459
1709612037.710863,6.399
1709612037.710913,7.385
1709612037.710964,5.460
1709612037.837367,8.363
1709612037.921360,7.386
1709612037.921476,5.461
1709612037.963392,6.400
1709612037.963495,8.364
1709612037.963546,6.401
1709612037.963595,8.365
1709612038.047367,5.462
1709612038.047477,5.463
1709612038.292358,5.464
1709612038.376390,7.387
1709612038.376491,6.402
1709612038.461394,8.366
1709612038.461500,5.465
1709612038.461551,5.466
1709612038.461599,7.388
1709612038.461652,6.403
1709612038.671357,5.467
1709612038.840357,7.389
1709612038.840468,8.367
1709612038.941433,5.468
1709612038.941543,6.404
1709612039.109393,7.390
1709612039.109496,5.469
1709612039.151491,7.391
1709612039.151587,5.470
1709612039.340428,5.471
1709612039.340528,8.368
1709612039.424464,5.472
1709612039.424560,8.369
1709612039.424632,5.473
1709612039.424695,8.370
1709612039.424746,5.474
1709612039.509485,6.405
1709612039.509618,8.371
1709612039.509675,5.475
1709612039.509725,8.372
1709612039.509776,7.392
1709612039.593378,6.406
1709612039.593484,6.407
1709612039.677352,8.373
1709612039.993433,6.408
1709612040.084381,7.393
1709612040.084482,7.394
1709612040.168527,6.409
1709612040.168631,8.374
1709612040.337065,6.410
1709612040.337168,6.411
1709612040.589359,8.375
1709612040.589467,7.395
1709612040.589517,7.396
1709612040.673352,6.412
1709612040.800362,5.476
1709612040.800482,7.397
1709612040.800538,8.376
1709612040.968397,6.413
1709612040.968502,5.477
1709612040.968553,7.398
1709612041.058362,7.399
1709612041.323361,6.414
1709612041.323468,6.415
1709612041.323519,7.400
1709612041.407388,5.478
1709612041.407498,7.401
1709612041.492362,6.416
1709612041.492472,8.377
1709612041.492524,7.402
1709612041.492574,7.403
1709612041.718494,5.479
1709612041.767512,7.404
1709612041.767602,6.417
1709612041.935488,6.418
1709612041.935622,8.378
1709612041.935691,5.480
1709612041.935739,8.379
1709612042.145426,8.380
1709612042.244391,8.381
1709612042.244501,6.419
1709612042.244557,8.382
1709612042.244610,5.481
1709612042.244659,6.420
1709612042.370376,5.482
1709612042.455493,6.421
1709612042.581592,8.383
1709612042.581688,8.384
1709612042.581743,6.422
1709612042.581795,6.423
1709612042.581844,8.385
1709612042.665406,8.386
1709612042.665507,6.424
1709612042.665561,8.387
1709612042.665610,8.388
1709612042.749380,7.405
1709612042.749480,7.406
1709612042.918379,6.425
1709612042.918486,6.426
1709612042.918538,8.389
1709612043.283356,7.407
1709612043.283467,8.390
1709612043.283520,6.427
1709612043.346389,8.391
1709612043.494382,7.408
1709612043.494484,6.428
1709612043.494535,7.409
1709612043.599360,6.429
1709612043.641461,8.392
1709612043.641568,7.410
1709612044.283355,6.430
1709612044.383395,7.411
1709612044.640359,7.412
1709612044.640464,7.413
1709612044.692375,6.431
1709612044.692484,6.432
1709612044.853445,7.414
1709612044.937356,6.433
1709612044.937463,6.434
1709612044.937515,8.393
1709612045.147529,7.415
1709612045.147648,8.394
1709612045.232550,8.395
1709612045.274731,8.396
1709612045.274834,8.397
1709612045.358468,7.416
1709612045.544499,7.417
1709612045.754361,6.435
1709612045.754466,6.436
1709612045.873554,6.437
1709612045.922390,6.438
1709612046.090354,7.418
1709612046.132594,7.419
1709612046.132696,8.398
1709612046.132749,8.399
1709612046.132801,7.420
1709612046.216438,7.421
1709612046.216538,8.400
1709612046.258438,7.422
1709612046.426387,8.401
1709612046.426495,7.423
1709612046.511529,6.439
1709612046.511613,7.424
1709612046.511664,6.440
1709612046.644367,7.425
1709612046.813368,8.402
1709612046.981398,7.426
1709612046.981505,6.441
1709612046.981558,7.427
1709612046.981607,6.442
1709612046.981660,7.428
1709612046.981710,7.429
1709612047.044561,8.403
1709612047.044671,7.430
1709612047.296358,7.431
1709612047.380490,7.432
1709612047.380592,8.404
1709612047.380649,6.443
1709612047.380698,6.444
1709612047.380748,6.445
1709612047.482399,7.433
1709612047.638427,7.434
1709612047.848360,6.446
1709612047.848465,6.447
1709612047.848517,7.435
1709612047.848566,7.436
1709612048.016396,7.437
1709612048.099427,6.448
1709612048.099530,8.405
1709612048.099585,7.438
1709612048.099634,8.406
1709612048.099686,6.449
1709612048.224580,6.450
1709612048.413355,7.439
1709612048.413461,8.407
1709612048.413515,8.408
1709612048.413565,6.451
1709612048.413615,8.409
1709612048.582453,6.452
1709612048.582552,6.453
1709612048.582603,8.410
1709612048.582653,6.454
1709612048.582703,7.440
1709612048.687423,6.455
1709612048.877524,7.441
1709612048.933363,6.456
1709612049.062362,6.457
1709612049.062464,6.458
1709612049.146437,6.459
1709612049.293372,8.411
1709612049.377407,7.442
1709612049.377512,7.443
1709612049.462537,6.460
1709612049.462641,7.444
1709612049.567400,8.412
1709612049.567507,6.461
1709612049.567560,6.462
1709612049.567609,6.463
1709612049.693371,6.464
1709612049.820404,6.465
1709612049.820510,8.413
1709612049.820563,6.466
1709612049.900442,8.414
1709612049.900541,7.445
1709612050.033440,6.467
1709612050.033540,6.468
1709612050.033592,8.415
1709612050.033646,7.446
1709612050.159687,8.416
1709612050.159801,8.417
1709612050.159857,7.447
1709612050.428368,7.448
1709612050.471353,7.449
1709612050.698366,8.418
1709612050.698478,7.450
1709612050.698531,7.451
1709612050.809360,7.452
1709612050.965435,6.469
1709612050.965504,7.453
1709612050.965554,6.470
1709612050.965605,7.454
1709612051.073396,7.455
1709612051.157405,6.471
1709612051.369371,7.456
1709612051.369486,6.472
1709612051.369536,8.419
1709612051.369587,7.457
1709612051.369637,6.473
1709612051.369691,7.458
1709612051.369744,6.474
1709612051.369793,8.420
1709612051.503618,7.459
1709612051.762383,7.460
1709612051.762485,6.475
1709612051.762537,8.421
1709612051.762587,6.476
1709612051.762637,7.461
1709612051.762688,8.422
1709612051.762737,8.423
1709612051.762786,6.477
1709612051.762836,8.424
1709612051.762884,7.462
1709612051.889739,6.478
1709612051.889846,8.425
1709612051.889898,8.426
1709612052.015441,6.479
1709612052.099553,8.427
1709612052.346434,6.480
1709612052.346527,7.463
1709612052.438478,7.464
1709612052.522457,7.465
1709612052.522555,8.428
1709612052.522605,7.466
1709612052.564664,6.481
1709612052.564775,7.467
1709612052.564831,7.468
1709612052.564887,8.429
1709612052.648497,7.469
1709612052.879364,7.470
1709612052.879467,7.471
1709612053.011466,7.472
1709612053.242381,7.473
1709612053.242491,8.430
1709612053.242550,8.431
1709612053.242608,8.432
1709612053.242657,6.482
1709612053.326435,7.474
1709612053.326512,7.475
1709612053.368377,7.476
1709612053.368472,7.477
1709612053.474639,8.433
1709612053.474739,8.434
1709612053.600408,7.478
1709612053.811439,6.483
1709612053.811533,8.435
1709612053.811586,8.436
1709612053.977399,8.437
1709612054.103354,6.484
1709612054.250357,6.485
1709612054.292383,7.479
1709612054.292484,8.438
1709612054.617345,6.486
1709612054.617444,6.487
1709612054.884439,7.480
1709612054.884549,6.488
1709612055.116592,6.489
1709612055.242348,6.490
1709612055.326354,8.439
1709612055.410350,8.440
1709612055.618346,6.491
1709612055.842385,7.481
1709612055.842511,6.492
1709612055.884408,6.493
1709612055.884516,7.482
1709612055.884570,6.494
1709612056.010636,8.441
1709612056.157429,7.483
1709612056.374386,7.484
1709612056.374483,6.495
1709612056.374534,8.442
1709612056.374586,7.485
1709612056.374636,8.443
1709612056.374684,8.444
1709612056.459374,7.486
1709612056.543357,8.445
1709612056.627349,8.446
1709612056.908354,6.496
1709612056.908456,6.497
1709612056.908508,7.487
1709612056.908560,6.498
1709612057.034399,6.499
1709612057.034508,7.488
1709612057.202381,6.500
1709612057.202485,8.447
1709612057.286380,7.489
1709612057.473347,6.501
1709612057.473443,7.490
1709612057.589424,7.491
1709612057.858359,8.448
1709612057.858461,8.449
1709612057.858514,8.450
1709612057.907393,7.492
1709612057.907492,7.493
1709612058.060349,7.494
1709612058.229083,8.451
1709612058.229182,6.502
1709612058.439385,8.452
1709612058.726414,7.495
1709612058.797513,7.496
1709612058.888665,8.453
1709612058.888786,8.454
1709612059.021489,8.455
1709612059.231461,7.497
1709612059.231565,7.498
1709612059.231618,8.456
1709612059.231667,8.457
1709612059.231718,8.458
1709612059.742352,8.459
1709612059.869354,8.460
1709612059.869455,8.461
1709612059.869511,8.462
1709612060.889343,8.463
1709612060.973532,8.464
1709612061.057346,8.465
1709612061.106711,8.466
1709612061.281712,8.467
1709612061.281815,8.468
1709612061.281877,8.469
1709612061.281928,8.470
