1709611937.706755,4.1
1709611937.706801,4.2
1709611937.706806,4.3
1709611937.706809,4.4
1709611938.063820,4.5
1709611938.211860,4.6
1709611938.337981,4.7
1709611938.358989,4.8
1709611938.400929,4.9
1709611938.464004,4.10
1709611938.568874,4.11
1709611938.737847,4.12
1709611938.968782,4.13
1709611939.074893,4.14
1709611939.263802,4.15
1709611939.579934,4.16
1709611939.642779,4.17
1709611939.747794,4.18
1709611939.831827,4.19
1709611939.957924,4.20
1709611940.084804,4.21
1709611940.294953,4.22
1709611941.023646,4.23
1709611941.086851,4.24
1709611941.318040,4.25
1709611941.838805,4.26
1709611941.964057,4.27
1709611942.132888,4.28
1709611943.051785,4.29
1709611943.239783,4.30
1709611943.260767,4.31
1709611943.575800,4.32
1709611943.982784,4.33
1709611944.171931,4.34
1709611944.663809,4.35
1709611944.725921,4.36
1709611944.788663,4.37
1709611944.828658,4.38
1709611944.849918,4.39
1709611945.561796,4.40
1709611945.686831,4.41
1709611945.770881,4.42
1709611946.803849,4.43
1709611946.949788,4.44
1709611947.103899,4.45
1709611947.145642,4.46
1709611947.292791,4.47
1709611947.608921,4.48
1709611947.650859,4.49
1709611947.734912,4.50
1709611947.755812,4.51
1709611947.776809,4.52
1709611948.134748,4.53
1709611948.450738,4.54
1709611948.724806,4.55
1709611948.724835,4.56
1709611948.808893,4.57
1709611948.870901,4.58
1709611949.017781,4.59
1709611949.123932,4.60
1709611949.396829,4.61
1709611949.564775,4.62
1709611949.607891,4.63
1709611949.628888,4.64
1709611949.691781,4.65
1709611949.754850,4.66
1709611949.754902,4.67
1709611949.817896,4.68
1709611949.859762,4.69
1709611949.881016,4.70
1709611949.943782,4.71
1709611950.048706,4.72
1709611950.280902,4.73
1709611950.511921,4.74
1709611950.532955,4.75
1709611950.722816,4.76
1709611950.743812,4.77
1709611950.764838,4.78
1709611951.150939,4.79
1709611951.358666,4.80
1709611951.421786,4.81
1709611951.442651,4.82
1709611951.674765,4.83
1709611951.695648,4.84
1709611951.779652,4.85
1709611951.821933,4.86
1709611951.884856,4.87
1709611952.546817,4.88
1709611952.630945,4.89
1709611952.777896,4.90
1709611952.905832,4.91
1709611952.968814,4.92
1709611953.052653,4.93
1709611953.095651,4.94
1709611953.225809,4.95
1709611953.246646,4.96
1709611953.309949,4.97
1709611953.330926,4.98
1709611953.456898,4.99
1709611953.584032,4.100
1709611953.982920,4.101
1709611954.339872,4.102
1709611954.402920,4.103
1709611955.437642,4.104
1709611955.584829,4.105
1709611955.626867,4.106
1709611956.282778,4.107
1709611956.386891,4.108
1709611956.821648,4.109
1709611956.821687,4.110
1709611956.821691,4.111
1709611956.988904,4.112
1709611957.094792,4.113
1709611957.388807,4.114
1709611957.556775,4.115
1709611958.212834,4.116
1709611959.008645,4.117
1709611959.049887,4.118
1709611959.071781,4.119
1709611959.113928,4.120
1709611959.523801,4.121
1709611959.628756,4.122
1709611959.691816,4.123
1709611959.712759,4.124
1709611960.091686,4.125
1709611960.266740,4.126
1709611960.308775,4.127
1709611960.371641,4.128
1709611960.729729,4.129
1709611960.856855,4.130
1709611960.898891,4.131
1709611960.961781,4.132
1709611960.961819,4.133
1709611961.003767,4.134
1709611961.298720,4.135
1709611961.571783,4.136
1709611961.614892,4.137
1709611961.867689,4.138
1709611962.160852,4.139
1709611962.528699,4.140
1709611963.086739,4.141
1709611963.148708,4.142
1709611963.148740,4.143
1709611963.337681,4.144
1709611963.590666,4.145
1709611963.933731,4.146
1709611964.039684,4.147
1709611964.362636,4.148
1709611964.657750,4.149
1709611965.010681,4.150
1709611965.209675,4.151
1709611965.415761,4.152
1709611965.457788,4.153
1709611965.569776,4.154
1709611965.612646,4.155
1709611965.612679,4.156
1709611966.084768,4.157
1709611966.087070,4.158
1709611966.099163,4.159
1709611966.483661,4.160
1709611966.649641,4.161
1709611967.027640,4.162
1709611967.304816,4.163
1709611967.479741,4.164
1709611967.606688,4.165
1709611967.669723,4.166
1709611967.921873,4.167
1709611968.047731,4.168
1709611968.069944,4.169
1709611968.069978,4.170
1709611968.244715,4.171
1709611968.349718,4.172
1709611968.454715,4.173
1709611968.581750,4.174
1709611968.624135,4.175
1709611968.672781,4.176
1709611968.884695,4.177
1709611969.500753,4.178
1709611969.704642,4.179
1709611970.132649,4.180
1709611970.542638,4.181
1709611970.705648,4.182
1709611970.833719,4.183
1709611971.350679,4.184
1709611971.516686,4.185
1709611971.728680,4.186
1709611971.728724,4.187
1709611971.917806,4.188
1709611972.066195,4.189
1709611972.282659,4.190
1709611972.366644,4.191
1709611972.908661,4.192
1709611973.157716,4.193
1709611973.241642,4.194
1709611973.409660,4.195
1709611973.430759,4.196
1709611973.577816,4.197
1709611973.683713,4.198
1709611974.877658,4.199
1709611975.023640,4.200
1709611975.234671,4.201
1709611975.430740,4.202
1709611975.451787,4.203
1709611975.514698,4.204
1709611976.053641,4.205
1709611976.143676,4.206
1709611976.580785,4.207
1709611976.754677,4.208
1709611976.961745,4.209
1709611977.003766,4.210
1709611977.109823,4.211
1709611977.305670,4.212
1709611977.452672,4.213
1709611977.543648,4.214
1709611977.586767,4.215
1709611977.670770,4.216
1709611977.717654,4.217
1709611977.717685,4.218
1709611977.865168,4.219
1709611977.906732,4.220
1709611978.032968,4.221
1709611978.731664,4.222
1709611978.812686,4.223
1709611979.021633,4.224
1709611979.190772,4.225
1709611979.232692,4.226
1709611979.827670,4.227
1709611979.952710,4.228
1709611980.057709,4.229
1709611980.226647,4.230
1709611980.268669,4.231
1709611980.457656,4.232
1709611980.591727,4.233
1709611980.933696,4.234
1709611981.091719,4.235
1709611981.427657,4.236
1709611982.088691,4.237
1709611982.253695,4.238
1709611982.274658,4.239
1709611982.526748,4.240
1709611982.568666,4.241
1709611982.828730,4.242
1709611982.961694,4.243
1709611983.368728,4.244
1709611983.688687,4.245
1709611983.966755,4.246
1709611984.453639,4.247
1709611984.515683,4.248
1709611984.578744,4.249
1709611984.621671,4.250
1709611984.705653,4.251
1709611984.705693,4.252
1709611985.128661,4.253
1709611985.400645,4.254
1709611985.484672,4.255
1709611985.533638,4.256
1709611985.786626,4.257
1709611986.673660,4.258
1709611987.147647,4.259
1709611987.147686,4.260
1709611987.377649,4.261
1709611987.482681,4.262
1709611988.130959,4.263
1709611988.333648,4.264
1709611988.571916,4.265
1709611988.803742,4.266
1709611988.905694,4.267
1709611988.989664,4.268
1709611989.263644,4.269
1709611989.263684,4.270
1709611989.312728,4.271
1709611989.550652,4.272
1709611989.782644,4.273
1709611989.894770,4.274
1709611989.978664,4.275
1709611990.132685,4.276
1709611990.279750,4.277
1709611990.384655,4.278
1709611991.267667,4.279
1709611991.320645,4.280
1709611991.498704,4.281
1709611991.562146,4.282
1709611991.737642,4.283
1709611992.052676,4.284
1709611992.788674,4.285
1709611993.010694,4.286
1709611993.031645,4.287
1709611993.347685,4.288
1709611993.438643,4.289
1709611993.954672,4.290
1709611994.846670,4.291
1709611994.848684,4.292
1709611994.950675,4.293
1709611994.992719,4.294
1709611995.147693,4.295
1709611995.189788,4.296
1709611995.231691,4.297
1709611995.399773,4.298
1709611995.589640,4.299
1709611995.631647,4.300
1709611995.631678,4.301
1709611996.037714,4.302
1709611996.122671,4.303
1709611996.191640,4.304
1709611996.275652,4.305
1709611996.275687,4.306
1709611996.324781,4.307
1709611996.437209,4.308
1709611997.130649,4.309
1709611997.140625,4.310
1709611997.234644,4.311
1709611997.910819,4.312
1709611998.018645,4.313
1709611998.124743,4.314
1709611998.271684,4.315
1709611999.019660,4.316
1709611999.257678,4.317
1709611999.467668,4.318
1709611999.636715,4.319
1709611999.678638,4.320
1709611999.895818,4.321
1709611999.965637,4.322
1709612000.204755,4.323
1709612000.744782,4.324
1709612000.744817,4.325
1709612000.820640,4.326
1709612000.863649,4.327
1709612000.863680,4.328
1709612001.137641,4.329
1709612001.228666,4.330
1709612001.735659,4.331
1709612001.765702,4.332
1709612001.765726,4.333
1709612002.293645,4.334
1709612002.321654,4.335
1709612002.321686,4.336
1709612002.541666,4.337
1709612002.752630,4.338
1709612002.941833,4.339
1709612003.215659,4.340
1709612003.341686,4.341
1709612003.657644,4.342
1709612004.282664,4.343
1709612004.433671,4.344
1709612005.182707,4.345
1709612005.680638,4.346
1709612005.784645,4.347
1709612005.784680,4.348
1709612006.163664,4.349
1709612006.241688,4.350
1709612006.514664,4.351
1709612006.648734,4.352
1709612006.837632,4.353
1709612006.921786,4.354
1709612006.921821,4.355
1709612007.090718,4.356
1709612007.237760,4.357
1709612007.454793,4.358
1709612007.693860,4.359
1709612007.784822,4.360
1709612008.637643,4.361
1709612008.756756,4.362
1709612008.968904,4.363
1709612009.059671,4.364
1709612009.486644,4.365
1709612009.640682,4.366
1709612010.160648,4.367
1709612010.782649,4.368
1709612010.784108,4.369
1709612011.123671,4.370
1709612011.347906,4.371
1709612011.628691,4.372
1709612011.628732,4.373
1709612011.670861,4.374
1709612011.908648,4.375
1709612011.950658,4.376
1709612012.062948,4.377
1709612012.315881,4.378
1709612012.357651,4.379
1709612012.680764,4.380
1709612012.933647,4.381
1709612013.037647,4.382
1709612013.101816,4.383
1709612013.607685,4.384
1709612014.330674,4.385
1709612014.378775,4.386
1709612014.736681,4.387
1709612015.090641,4.388
1709612015.539796,4.389
1709612015.567655,4.390
1709612016.097654,4.391
1709612016.178752,4.392
1709612016.178779,4.393
1709612016.261677,4.394
1709612016.331640,4.395
1709612016.520650,4.396
1709612016.605799,4.397
1709612016.626669,4.398
1709612016.626696,4.399
1709612016.675799,4.400
1709612017.160644,4.401
1709612017.243640,4.402
1709612017.243675,4.403
1709612017.432642,4.404
1709612018.207649,4.405
1709612018.486642,4.406
1709612018.529049,4.407
1709612018.683639,4.408
1709612019.677699,4.409
1709612019.727653,4.410
1709612019.727685,4.411
1709612019.800697,4.412
1709612019.905638,4.413
1709612020.430648,4.414
1709612020.430685,4.415
1709612020.682796,4.416
1709612020.732647,4.417
1709612020.982646,4.418
1709612021.031674,4.419
1709612021.333873,4.420
1709612021.564742,4.421
1709612021.607769,4.422
1709612021.691657,4.423
1709612021.733653,4.424
1709612021.824739,4.425
1709612022.277668,4.426
1709612022.741652,4.427
1709612022.799941,4.428
1709612023.013673,4.429
1709612023.161655,4.430
1709612023.525653,4.431
1709612023.567645,4.432
1709612023.690724,4.433
1709612023.858650,4.434
1709612023.858693,4.435
1709612024.090745,4.436
1709612024.174761,4.437
1709612024.237672,4.438
1709612024.370684,4.439
1709612024.602647,4.440
1709612025.128730,4.441
1709612025.158785,4.442
1709612025.255707,4.443
1709612025.402672,4.444
1709612025.444763,4.445
1709612025.444790,4.446
1709612026.017665,4.447
1709612026.332693,4.448
1709612026.757636,4.449
1709612026.841672,4.450
1709612027.144765,4.451
1709612027.340645,4.452
1709612027.445708,4.453
1709612028.174637,4.454
1709612028.509734,4.455
1709612029.928662,4.456
1709612029.976679,4.457
1709612030.082772,4.458
1709612030.271636,4.459
1709612030.718794,4.460
1709612031.005652,4.461
1709612031.069984,4.462
1709612031.216685,4.463
1709612031.258645,4.464
1709612031.258673,4.465
1709612031.510644,4.466
1709612031.721642,4.467
1709612031.833659,4.468
1709612032.114642,4.469
1709612032.345628,4.470
1709612032.640769,4.471
1709612032.710662,4.472
1709612033.105656,4.473
1709612033.293669,4.474
1709612033.314653,4.475
1709612033.377712,4.476
1709612033.440658,4.477
1709612033.482764,4.478
1709612033.672891,4.479
1709612034.093641,4.480
1709612034.654637,4.481
1709612034.884688,4.482
1709612035.387718,4.483
1709612035.428703,4.484
1709612035.470711,4.485
1709612035.512788,4.486
1709612036.240677,4.487
1709612036.561673,4.488
1709612036.863649,4.489
1709612036.968651,4.490
1709612036.989663,4.491
1709612037.116761,4.492
1709612037.263717,4.493
1709612037.464668,4.494
