1709611942.425706,5.1
1709611942.509807,5.2
1709611942.693297,5.3
1709611942.804764,5.4
1709611942.832883,5.5
1709611942.832929,5.6
1709611942.860796,5.7
1709611942.888775,5.8
1709611943.251771,5.9
1709611943.307930,5.10
1709611943.475758,5.11
1709611943.599688,5.12
1709611943.767687,5.13
1709611943.956533,5.14
1709611944.125530,5.15
1709611944.188699,5.16
1709611944.230692,5.17
1709611944.314797,5.18
1709611944.482696,5.19
1709611944.714680,5.20
1709611944.945760,5.21
1709611945.093801,5.22
1709611945.219645,5.23
1709611945.261748,5.24
1709611945.689526,5.25
1709611946.190532,5.26
1709611946.273792,5.27
1709611946.336790,5.28
1709611946.336819,5.29
1709611946.462689,5.30
1709611946.525573,5.31
1709611946.883803,5.32
1709611947.011725,5.33
1709611947.727807,5.34
1709611947.957659,5.35
1709611948.189757,5.36
1709611948.315789,5.37
1709611948.357526,5.38
1709611948.525550,5.39
1709611948.568533,5.40
1709611948.652827,5.41
1709611949.576751,5.42
1709611950.886533,5.43
1709611950.897928,5.44
1709611951.367805,5.45
1709611951.640636,5.46
1709611951.724632,5.47
1709611951.808813,5.48
1709611952.125803,5.49
1709611952.272627,5.50
1709611952.630531,5.51
1709611952.695676,5.52
1709611952.716763,5.53
1709611952.737725,5.54
1709611952.800762,5.55
1709611953.832523,5.56
1709611953.957664,5.57
1709611954.063755,5.58
1709611954.189632,5.59
1709611954.210568,5.60
1709611954.420549,5.61
1709611954.589531,5.62
1709611955.138709,5.63
1709611955.700649,5.64
1709611955.832797,5.65
1709611956.000643,5.66
1709611956.043668,5.67
1709611957.022539,5.68
1709611957.562626,5.69
1709611957.813759,5.70
1709611957.937811,5.71
1709611958.106687,5.72
1709611958.127718,5.73
1709611958.442535,5.74
1709611958.674944,5.75
1709611958.905779,5.76
1709611959.116654,5.77
1709611959.639533,5.78
1709611959.958616,5.79
1709611960.148670,5.80
1709611960.662542,5.81
1709611960.850615,5.82
1709611961.040922,5.83
1709611961.439626,5.84
1709611961.543802,5.85
1709611961.543832,5.86
1709611961.607674,5.87
1709611962.440582,5.88
1709611962.503535,5.89
1709611962.630539,5.90
1709611962.672539,5.91
1709611962.735531,5.92
1709611962.826550,5.93
1709611962.889543,5.94
1709611963.163571,5.95
1709611963.784536,5.96
1709611963.784577,5.97
1709611963.784580,5.98
1709611964.036750,5.99
1709611964.515544,5.100
1709611964.543565,5.101
1709611964.596632,5.102
1709611964.680869,5.103
1709611964.722543,5.104
1709611964.974536,5.105
1709611965.227551,5.106
1709611965.255733,5.107
1709611965.318861,5.108
1709611965.444525,5.109
1709611965.861518,5.110
1709611965.920597,5.111
1709611966.153823,5.112
1709611966.321541,5.113
1709611966.574575,5.114
1709611966.700621,5.115
1709611966.700648,5.116
1709611966.855230,5.117
1709611966.917575,5.118
1709611966.917621,5.119
1709611967.086565,5.120
1709611967.149652,5.121
1709611967.212765,5.122
1709611967.576636,5.123
1709611967.657601,5.124
1709611967.741544,5.125
1709611968.085561,5.126
1709611968.274628,5.127
1709611968.526531,5.128
1709611968.569642,5.129
1709611969.041846,5.130
1709611969.299526,5.131
1709611969.383628,5.132
1709611969.530595,5.133
1709611969.594535,5.134
1709611969.615528,5.135
1709611969.972524,5.136
1709611970.066679,5.137
1709611970.381559,5.138
1709611970.676534,5.139
1709611970.718587,5.140
1709611970.956532,5.141
1709611971.209617,5.142
1709611971.300699,5.143
1709611971.489536,5.144
1709611971.784619,5.145
1709611971.827206,5.146
1709611972.059935,5.147
1709611972.353590,5.148
1709611972.395534,5.149
1709611972.802580,5.150
1709611972.858556,5.151
1709611973.334542,5.152
1709611973.712537,5.153
1709611974.099563,5.154
1709611974.099600,5.155
1709611974.104909,5.156
1709611974.596548,5.157
1709611974.754559,5.158
1709611975.214525,5.159
1709611975.439599,5.160
1709611975.502568,5.161
1709611975.502604,5.162
1709611975.608539,5.163
1709611976.095671,5.164
1709611976.095701,5.165
1709611976.304650,5.166
1709611976.304683,5.167
1709611976.669642,5.168
1709611976.834557,5.169
1709611977.030592,5.170
1709611977.745735,5.171
1709611977.951529,5.172
1709611978.127517,5.173
1709611978.733548,5.174
1709611978.805626,5.175
1709611979.285517,5.176
1709611979.557535,5.177
1709611979.712550,5.178
1709611980.091525,5.179
1709611980.141528,5.180
1709611980.277575,5.181
1709611980.998635,5.182
1709611981.313539,5.183
1709611981.397539,5.184
1709611981.587551,5.185
1709611981.629539,5.186
1709611981.629570,5.187
1709611981.741574,5.188
1709611982.700556,5.189
1709611982.718453,5.190
1709611982.783569,5.191
1709611982.909526,5.192
1709611983.344542,5.193
1709611983.358356,5.194
1709611983.561903,5.195
1709611983.561962,5.196
1709611983.631533,5.197
1709611983.659546,5.198
1709611983.764572,5.199
1709611983.785707,5.200
1709611983.848528,5.201
1709611983.869532,5.202
1709611983.939823,5.203
1709611984.136614,5.204
1709611984.580543,5.205
1709611984.943561,5.206
1709611984.988528,5.207
1709611985.122541,5.208
1709611985.227531,5.209
1709611985.423558,5.210
1709611985.528560,5.211
1709611985.809942,5.212
1709611986.085567,5.213
1709611986.127692,5.214
1709611986.484562,5.215
1709611986.573688,5.216
1709611986.888705,5.217
1709611986.930611,5.218
1709611986.930886,5.219
1709611987.313531,5.220
1709611987.477568,5.221
1709611988.096533,5.222
1709611988.333704,5.223
1709611988.730525,5.224
1709611989.019537,5.225
1709611989.062644,5.226
1709611989.062671,5.227
1709611989.062687,5.228
1709611989.167549,5.229
1709611989.321581,5.230
1709611989.581555,5.231
1709611990.215525,5.232
1709611990.340557,5.233
1709611990.698525,5.234
1709611991.027547,5.235
1709611991.070545,5.236
1709611991.154763,5.237
1709611991.196547,5.238
1709611991.455683,5.239
1709611991.476667,5.240
1709611991.610554,5.241
1709611991.743551,5.242
1709611991.995526,5.243
1709611991.995566,5.244
1709611992.249529,5.245
1709611992.333558,5.246
1709611992.543605,5.247
1709611992.880663,5.248
1709611993.122538,5.249
1709611993.122573,5.250
1709611993.633523,5.251
1709611994.054523,5.252
1709611994.079530,5.253
1709611994.083910,5.254
1709611994.084490,5.255
1709611994.215537,5.256
1709611994.551715,5.257
1709611994.909586,5.258
1709611994.951538,5.259
1709611994.951570,5.260
1709611994.982610,5.261
1709611995.179513,5.262
1709611995.969529,5.263
1709611996.263577,5.264
1709611996.459549,5.265
1709611996.754519,5.266
1709611997.367594,5.267
1709611997.395623,5.268
1709611997.510652,5.269
1709611997.888607,5.270
1709611998.093619,5.271
1709611998.450517,5.272
1709611998.801534,5.273
1709611998.927533,5.274
1709611998.969575,5.275
1709611999.355567,5.276
1709611999.376613,5.277
1709611999.376631,5.278
1709611999.978604,5.279
1709612000.146542,5.280
1709612000.378720,5.281
1709612000.441617,5.282
1709612000.984543,5.283
1709612001.089574,5.284
1709612001.201626,5.285
1709612001.243544,5.286
1709612001.334528,5.287
1709612001.376597,5.288
1709612001.755567,5.289
1709612001.923531,5.290
1709612001.965522,5.291
1709612001.965550,5.292
1709612002.134650,5.293
1709612002.134680,5.294
1709612002.176595,5.295
1709612002.428666,5.296
1709612002.449531,5.297
1709612003.016612,5.298
1709612003.666524,5.299
1709612003.667744,5.300
1709612003.777549,5.301
1709612004.248513,5.302
1709612004.485542,5.303
1709612004.801566,5.304
1709612004.843526,5.305
1709612005.539585,5.306
1709612005.650654,5.307
1709612006.050596,5.308
1709612006.291582,5.309
1709612006.979525,5.310
1709612007.036723,5.311
1709612007.183520,5.312
1709612007.183552,5.313
1709612007.225906,5.314
1709612007.246587,5.315
1709612007.540552,5.316
1709612007.793533,5.317
1709612007.793571,5.318
1709612008.053569,5.319
1709612008.228530,5.320
1709612008.228560,5.321
1709612008.851516,5.322
1709612009.131524,5.323
1709612009.264582,5.324
1709612009.327669,5.325
1709612009.327706,5.326
1709612009.327709,5.327
1709612009.418585,5.328
1709612009.846549,5.329
1709612009.957664,5.330
1709612010.065533,5.331
1709612010.128528,5.332
1709612010.282536,5.333
1709612010.324627,5.334
1709612010.647655,5.335
1709612010.772549,5.336
1709612010.898570,5.337
1709612011.172537,5.338
1709612011.214547,5.339
1709612011.594549,5.340
1709612011.776592,5.341
1709612011.839594,5.342
1709612011.839635,5.343
1709612011.860605,5.344
1709612011.860632,5.345
1709612011.987689,5.346
1709612012.072535,5.347
1709612012.114577,5.348
1709612012.247622,5.349
1709612012.317617,5.350
1709612012.506664,5.351
1709612013.457514,5.352
1709612013.491979,5.353
1709612013.516569,5.354
1709612013.734991,5.355
1709612013.797536,5.356
1709612013.881517,5.357
1709612013.923536,5.358
1709612014.007823,5.359
1709612014.050542,5.360
1709612014.113559,5.361
1709612014.135561,5.362
1709612014.647524,5.363
1709612014.751651,5.364
1709612014.814662,5.365
1709612015.010581,5.366
1709612015.242725,5.367
1709612015.677554,5.368
1709612016.062530,5.369
1709612016.140614,5.370
1709612016.475535,5.371
1709612016.644708,5.372
1709612016.937559,5.373
1709612017.295539,5.374
1709612017.515861,5.375
1709612017.621535,5.376
1709612017.754550,5.377
1709612017.923523,5.378
1709612018.155546,5.379
1709612018.197625,5.380
1709612018.477526,5.381
1709612019.468529,5.382
1709612019.549609,5.383
1709612019.559525,5.384
1709612019.619168,5.385
1709612019.954526,5.386
1709612020.383531,5.387
1709612020.530538,5.388
1709612020.530569,5.389
1709612020.706557,5.390
1709612020.706596,5.391
1709612021.187513,5.392
1709612021.291535,5.393
1709612021.508663,5.394
1709612021.635524,5.395
1709612021.944532,5.396
1709612022.365523,5.397
1709612022.850613,5.398
1709612022.908612,5.399
1709612022.908645,5.400
1709612023.115706,5.401
1709612023.136532,5.402
1709612023.646530,5.403
1709612023.726519,5.404
1709612023.726552,5.405
1709612023.810535,5.406
1709612024.084540,5.407
1709612024.252547,5.408
1709612024.406544,5.409
1709612025.049558,5.410
1709612025.223541,5.411
1709612025.265670,5.412
1709612025.946512,5.413
1709612025.962992,5.414
1709612026.177890,5.415
1709612026.303541,5.416
1709612026.345523,5.417
1709612026.450558,5.418
1709612026.724635,5.419
1709612026.724668,5.420
1709612026.857654,5.421
1709612027.068663,5.422
1709612027.669737,5.423
1709612027.694546,5.424
1709612029.086521,5.425
1709612029.190525,5.426
1709612029.633568,5.427
1709612029.652276,5.428
1709612030.014531,5.429
1709612030.124557,5.430
1709612030.320756,5.431
1709612030.362592,5.432
1709612030.383629,5.433
1709612030.509577,5.434
1709612030.867522,5.435
1709612031.100530,5.436
1709612032.033519,5.437
1709612032.114644,5.438
1709612032.114670,5.439
1709612033.026516,5.440
1709612033.080535,5.441
1709612033.258532,5.442
1709612034.182541,5.443
1709612034.307550,5.444
1709612034.356522,5.445
1709612034.398616,5.446
1709612034.735587,5.447
1709612034.735618,5.448
1709612035.297526,5.449
1709612035.825542,5.450
1709612035.881566,5.451
1709612036.006549,5.452
1709612036.027535,5.453
1709612036.091585,5.454
1709612036.112562,5.455
1709612036.427594,5.456
1709612036.687526,5.457
1709612037.127536,5.458
1709612037.315706,5.459
1709612037.546544,5.460
1709612037.652553,5.461
1709612037.860684,5.462
1709612037.860720,5.463
1709612037.972536,5.464
1709612038.204520,5.465
1709612038.246542,5.466
1709612038.351667,5.467
1709612038.547541,5.468
1709612038.737557,5.469
1709612038.870524,5.470
1709612038.954778,5.471
1709612038.954824,5.472
1709612039.039762,5.473
1709612039.081524,5.474
1709612039.207541,5.475
1709612040.457533,5.476
1709612040.695549,5.477
1709612041.092522,5.478
1709612041.450567,5.479
1709612041.640569,5.480
1709612041.902525,5.481
1709612041.994529,5.482
1709612042.392624,5.483
