1709613104.220397,3.1
1709613105.234294,3.2
1709613109.546303,3.3
1709613110.381294,3.4
1709613110.779288,3.5
1709613111.854296,3.6
1709613118.349298,3.7
1709613118.649295,3.8
1709613118.733423,3.9
1709613120.600304,3.10
1709613123.604293,3.11
1709613126.218386,3.12
1709613128.501287,3.13
1709613130.037299,3.14
1709613132.683293,3.15
1709613137.687298,3.16
1709613138.446296,3.17
1709613138.812309,3.18
1709613139.809312,3.19
1709613140.546296,3.20
1709613143.413283,3.21
1709613143.503312,3.22
1709613144.744293,3.23
1709613145.630300,3.24
1709613149.291309,3.25
1709613149.542290,3.26
1709613154.423313,3.27
1709613158.323317,3.28
1709613161.324394,3.29
1709613161.380295,3.30
1709613161.621298,3.31
1709613164.773293,3.32
1709613165.979283,3.33
1709613171.759286,3.34
1709613172.723324,3.35
1709613174.234291,3.36
1709613174.877290,3.37
1709613176.785299,3.38
1709613177.518292,3.39
1709613183.220366,3.40
1709613183.944288,3.41
1709613184.789390,3.42
1709613184.954319,3.43
1709613187.078292,3.44
1709613190.582289,3.45
1709613190.770312,3.46
1709613197.158315,3.47
1709613198.328285,3.48
1709613199.321296,3.49
1709613203.428301,3.50
1709613209.537292,3.51
1709613211.045291,3.52
1709613214.415374,3.53
1709613215.091296,3.54
1709613216.383289,3.55
1709613216.718298,3.56
1709613218.594304,3.57
1709613219.384300,3.58
1709613219.572288,3.59
1709613222.904282,3.60
1709613223.178297,3.61
1709613223.220385,3.62
1709613224.493298,3.63
1709613227.625302,3.64
1709613233.113286,3.65
1709613233.259338,3.66
1709613236.422285,3.67
1709613238.694290,3.68
1709613244.205306,3.69
1709613244.258106,3.70
1709613246.757302,3.71
1709613248.736326,3.72
1709613249.449294,3.73
1709613251.119307,3.74
1709613251.239403,3.75
1709613255.195289,3.76
1709613257.022300,3.77
1709613257.293301,3.78
1709613258.816331,3.79
1709613260.447289,3.80
1709613262.184301,3.81
1709613264.015304,3.82
1709613265.881305,3.83
1709613268.032287,3.84
1709613269.913301,3.85
1709613272.532299,3.86
1709613274.314289,3.87
1709613276.499310,3.88
1709613279.533296,3.89
1709613284.490298,3.90
1709613286.212299,3.91
1709613287.342295,3.92
1709613288.579283,3.93
1709613289.386297,3.94
1709613292.155284,3.95
1709613295.037308,3.96
1709613295.184300,3.97
1709613296.693300,3.98
1709613297.288294,3.99
1709613299.031306,3.100
1709613299.792283,3.101
1709613301.736282,3.102
1709613303.121294,3.103
1709613308.832298,3.104
