1709613102.265662,2.1
1709613103.369502,2.2
1709613103.811099,2.3
1709613105.299510,2.4
1709613107.169497,2.5
1709613111.128522,2.6
1709613114.324630,2.7
1709613119.335455,2.8
1709613120.064504,2.9
1709613120.385499,2.10
1709613127.580502,2.11
1709613128.984503,2.12
1709613131.684928,2.13
1709613134.227495,2.14
1709613135.005506,2.15
1709613149.653512,2.16
1709613150.756594,2.17
1709613151.753509,2.18
1709613151.878539,2.19
1709613153.004012,2.20
1709613154.727498,2.21
1709613154.810496,2.22
1709613158.808502,2.23
1709613163.341500,2.24
1709613163.357367,2.25
1709613166.904789,2.26
1709613167.028529,2.27
1709613169.653507,2.28
1709613170.154624,2.29
1709613170.694508,2.30
1709613172.498503,2.31
1709613173.513699,2.32
1709613174.102521,2.33
1709613174.234523,2.34
1709613175.762505,2.35
1709613175.843722,2.36
1709613175.947511,2.37
1709613176.512541,2.38
1709613178.572496,2.39
1709613178.627597,2.40
1709613178.933524,2.41
1709613180.963501,2.42
1709613183.472499,2.43
1709613184.439528,2.44
1709613186.879793,2.45
1709613190.268498,2.46
1709613191.798492,2.47
1709613192.312497,2.48
1709613192.818502,2.49
1709613193.566498,2.50
1709613194.229584,2.51
1709613198.216517,2.52
